csv data/C=0.15nF, R=240kΩ, Circuits du deuxième ordre.csv

#Digilent WaveForms Oscilloscope Acquisition
#Device Name: Discovery2
#Serial Number: SN:210321AD5905
#Date Time: 2022-07-04 14:12:50.120
#Sample rate: 1.5873e+06Hz
#Samples: 8192
#Trigger: Source: Channel 1 Type: Edge Condition: Rising Level: 0 V Hyst.: Auto HoldOff: 100 ns
#Channel 1: Range: 500 mV/div Offset: 0 V Attenuation: 1 X Sample Mode: Average
#Channel 2: Range: 500 mV/div Offset: 0 V Attenuation: 1 X Sample Mode: Average
#Wavegen Channel 1: Running
#Mode: Custom
#Type: 3.0.csv
#Frequency: 250 Hz
#Period: 4 ms
#Amplitude: 2 V
#Offset: 0 V
#Phase: 0 бу

Time (s),Channel 1 (V),Channel 2 (V)
-0.004430382275216907,0.003463962806164841,0.004870270303014534
-0.004429752275216907,0.003463962806164841,0.004203029445475246
-0.004429122275216907,0.003126878549221845,0.00487027030301423
-0.004428492275216907,0.003463962806164994,0.004536649874245041
-0.004427862275216907,0.003801047063107989,0.005203890731784329
-0.004427232275216906,0.004138131320051444,0.004870270303014838
-0.004426602275216907,0.004475215576994134,0.005203890731784481
-0.004425972275216907,0.004138131320051138,0.005537511160554126
-0.004425342275216907,0.003463962806165147,0.005537511160554126
-0.004424712275216907,0.003463962806164841,0.004870270303015141
-0.004424082275216907,0.003463962806164841,0.004870270303014534
-0.004423452275216906,0.004138131320050525,0.005203890731784026
-0.004422822275216906,0.003463962806164994,0.004870270303014838
-0.004422192275216907,0.003801047063107989,0.005537511160554126
-0.004421562275216907,0.004138131320050985,0.005203890731784481
-0.004420932275216907,0.003801047063108296,0.004536649874245345
-0.004420302275216907,0.004138131320051138,0.005203890731784329
-0.004419672275216907,0.004138131320051138,0.005871131589323618
-0.004419042275216906,0.004138131320051444,0.005537511160553974
-0.004418412275216907,0.00481229983393713,0.005203890731784481
-0.004417782275216907,0.004138131320051138,0.005537511160554126
-0.004417152275216907,0.004475215576994134,0.005203890731784481
-0.004416522275216907,0.004138131320051138,0.005203890731784481
-0.004415892275216907,0.004138131320051138,0.005537511160554126
-0.004415262275216906,0.004138131320051138,0.004870270303014838
-0.004414632275216906,0.004138131320051292,0.005203890731784481
-0.004414002275216907,0.004475215576994288,0.005537511160554126
-0.004413372275216907,0.004812299833937283,0.006204752018093414
-0.004412742275216907,0.004812299833937436,0.005871131589324226
-0.004412112275216907,0.004812299833937436,0.006204752018093718
-0.004411482275216906,0.004475215576994288,0.005871131589323922
-0.004410852275216906,0.004475215576994288,0.005871131589324377
-0.004410222275216907,0.004475215576994288,0.006871992875633309
-0.004409592275216907,0.004812299833937283,0.008206474590711887
-0.004408962275216907,0.00514938409088028,0.008206474590712495
-0.004408332275216907,0.005149384090880586,0.007872854161942697
-0.004407702275216907,0.003801047063107989,0.005203890731784329
-0.004407072275216906,0.003463962806164534,0.004203029445474942
-0.004406442275216907,0.003126878549221845,0.004203029445475246
-0.004405812275216907,0.003463962806164841,0.004870270303014534
-0.004405182275216907,0.003126878549221845,0.005203890731784178
-0.004404552275216907,0.003463962806164534,0.005871131589323315
-0.004403922275216907,0.003801047063107989,0.006204752018093718
-0.004403292275216906,0.004138131320051138,0.00620475201809311
-0.004402662275216906,0.004138131320050985,0.005537511160554278
-0.004402032275216907,0.003801047063107989,0.005871131589323922
-0.004401402275216907,0.003463962806164994,0.005203890731784633
-0.004400772275216907,0.003801047063107683,0.005871131589323315
-0.004400142275216907,0.003801047063107989,0.005537511160554126
-0.004399512275216907,0.004138131320050985,0.006538372446863058
-0.004398882275216906,0.003801047063107989,0.005871131589323922
-0.004398252275216907,0.003801047063107989,0.005871131589323922
-0.004397622275216907,0.003801047063107989,0.005871131589323922
-0.004396992275216907,0.004138131320050985,0.005871131589323922
-0.004396362275216907,0.003801047063108143,0.005203890731784937
-0.004395732275216907,0.004138131320051138,0.006538372446863514
-0.004395102275216906,0.003801047063107989,0.005871131589324226
-0.004394472275216907,0.003801047063107989,0.006204752018093566
-0.004393842275216907,0.003801047063107989,0.005871131589323922
-0.004393212275216907,0.003801047063107989,0.005871131589323922
-0.004392582275216907,0.003801047063107989,0.005871131589323922
-0.004391952275216907,0.004475215576994288,0.005871131589323922
-0.004391322275216906,0.004475215576993982,0.005871131589323618
-0.004390692275216906,0.004138131320050985,0.005537511160554429
-0.004390062275216907,0.003801047063107989,0.006204752018093718
-0.004389432275216907,0.004138131320050985,0.005871131589324074
-0.004388802275216907,0.004138131320051138,0.004870270303015444
-0.004388172275216907,0.004138131320051138,0.005203890731784329
-0.004387542275216907,0.004138131320051138,0.005203890731784329
-0.004386912275216906,0.004138131320050832,0.005537511160554126
-0.004386282275216907,0.003801047063108143,0.005537511160554126
-0.004385652275216907,0.004138131320051138,0.005537511160554126
-0.004385022275216907,0.003801047063108143,0.005537511160554126
-0.004384392275216907,0.003801047063107836,0.00587113158932377
-0.004383762275216907,0.003463962806164841,0.005537511160554126
-0.004383132275216906,0.003801047063108296,0.005203890731784329
-0.004382502275216906,0.004138131320051444,0.005203890731785088
-0.004381872275216907,0.004812299833937436,0.006871992875633309
-0.004381242275216907,0.005149384090880432,0.007205613304402954
-0.004380612275216907,0.005149384090880586,0.007539233733172598
-0.004379982275216907,0.004475215576994288,0.006871992875633309
-0.004379352275216906,0.003463962806164228,0.004203029445474335
-0.004378722275216906,0.002789794292278696,0.003535788587935198
-0.004378092275216907,0.003126878549221692,0.003202168159165554
-0.004377462275216907,0.003463962806164687,0.003869409016704842
-0.004376832275216907,0.003801047063107683,0.004870270303013624
-0.004376202275216907,0.004138131320051138,0.005871131589323922
-0.004375572275216907,0.003801047063107989,0.005871131589323922
-0.004374942275216906,0.003126878549221998,0.005537511160553519
-0.004374312275216907,0.003463962806164534,0.004870270303014534
-0.004373682275216907,0.002789794292278542,0.004870270303014534
-0.004373052275216907,0.003463962806164534,0.005871131589323467
-0.004372422275216907,0.003801047063107683,0.005537511160554429
-0.004371792275216907,0.004138131320051138,0.005871131589323922
-0.004371162275216906,0.004475215576994288,0.006204752018093414
-0.004370532275216906,0.004475215576993982,0.00587113158932377
-0.004369902275216907,0.003801047063107989,0.005537511160554126
-0.004369272275216907,0.004475215576993982,0.00587113158932377
-0.004368642275216907,0.004138131320051444,0.005203890731784937
-0.004368012275216907,0.004475215576994288,0.006204752018093718
-0.004367382275216907,0.004475215576994288,0.006538372446863362
-0.004366752275216906,0.004138131320050832,0.00653837244686321
-0.004366122275216907,0.003463962806164841,0.005871131589323922
-0.004365492275216907,0.004138131320050831,0.00653837244686321
-0.004364862275216907,0.004475215576994134,0.005871131589324226
-0.004364232275216907,0.004475215576994288,0.006204752018094021
-0.004363602275216907,0.004475215576994288,0.006871992875633309
-0.004362972275216906,0.004138131320051138,0.006871992875633309
-0.004362342275216907,0.004138131320051138,0.006871992875633461
-0.004361712275216907,0.004138131320051138,0.007205613304403106
-0.004361082275216907,0.003463962806165147,0.006204752018094173
-0.004360452275216907,0.003801047063107683,0.006204752018093718
-0.004359822275216907,0.004138131320051138,0.006538372446863514
-0.004359192275216906,0.004475215576994288,0.006538372446863514
-0.004358562275216906,0.004475215576994288,0.006538372446863666
-0.004357932275216907,0.004475215576994288,0.006871992875633309
-0.004357302275216907,0.004138131320051292,0.006538372446863666
-0.004356672275216907,0.004475215576993982,0.006538372446863514
-0.004356042275216907,0.004475215576994288,0.006871992875633309
-0.004355412275216907,0.005486468347823275,0.008206474590711887
-0.004354782275216906,0.005486468347823428,0.008540095019481986
-0.004354152275216907,0.00514938409088028,0.008206474590711584
-0.004353522275216907,0.004475215576994288,0.006204752018093718
-0.004352892275216907,0.003126878549222305,0.004536649874245496
-0.004352262275216907,0.003126878549221845,0.003202168159165857
-0.004351632275216907,0.003463962806164841,0.003869409016705146
-0.004351002275216906,0.003463962806165147,0.004536649874245647
-0.004350372275216906,0.003801047063108143,0.005537511160553974
-0.004349742275216907,0.004138131320051138,0.005203890731784329
-0.004349112275216907,0.004475215576994134,0.005537511160553974
-0.004348482275216907,0.004138131320051444,0.005537511160554126
-0.004347852275216907,0.003801047063107989,0.005203890731784329
-0.004347222275216906,0.004138131320050832,0.004870270303014838
-0.004346592275216906,0.003801047063107836,0.005203890731784633
-0.004345962275216907,0.003463962806164841,0.005871131589323922
-0.004345332275216907,0.003801047063107836,0.006204752018093566
-0.004344702275216907,0.004475215576993674,0.006204752018093718
-0.004344072275216907,0.004138131320051292,0.005871131589324074
-0.004343442275216907,0.004475215576994288,0.006204752018093718
-0.004342812275216906,0.004475215576993674,0.00620475201809311
-0.004342182275216907,0.003801047063107989,0.005537511160554278
-0.004341552275216907,0.003801047063107989,0.005871131589323922
-0.004340922275216907,0.003801047063107989,0.005871131589323922
-0.004340292275216907,0.003801047063107989,0.005537511160554429
-0.004339662275216907,0.004138131320051138,0.005871131589323922
-0.004339032275216906,0.003801047063108603,0.005871131589323618
-0.004338402275216906,0.004475215576994134,0.005537511160554278
-0.004337772275216907,0.004138131320051138,0.005871131589323922
-0.004337142275216907,0.004475215576994134,0.005871131589323922
-0.004336512275216907,0.004475215576994288,0.005537511160554429
-0.004335882275216907,0.004475215576994288,0.005871131589323922
-0.004335252275216907,0.004475215576994288,0.006204752018093566
-0.004334622275216906,0.004138131320051292,0.005871131589324074
-0.004333992275216907,0.004475215576994288,0.006204752018093718
-0.004333362275216907,0.004475215576994288,0.006538372446863514
-0.004332732275216907,0.004475215576994288,0.005871131589324226
-0.004332102275216907,0.004138131320050985,0.005871131589323922
-0.004331472275216907,0.003801047063107989,0.005871131589323922
-0.004330842275216906,0.004475215576994288,0.005537511160554429
-0.004330212275216907,0.004475215576994441,0.005871131589324377
-0.004329582275216907,0.004812299833937436,0.006871992875633309
-0.004328952275216907,0.005149384090880432,0.007872854161942243
-0.004328322275216907,0.004812299833937743,0.008206474590712191
-0.004327692275216907,0.004812299833937436,0.007872854161942697
-0.004327062275216906,0.003801047063107376,0.005537511160553216
-0.004326432275216906,0.003126878549221692,0.004536649874244738
-0.004325802275216907,0.003126878549221692,0.004536649874244738
-0.004325172275216907,0.003126878549221692,0.004536649874244738
-0.004324542275216907,0.003463962806164534,0.00487027030301423
-0.004323912275216907,0.003801047063107989,0.005871131589323922
-0.004323282275216907,0.004138131320050985,0.00653837244686321
-0.004322652275216906,0.004138131320051138,0.006204752018093414
-0.004322022275216907,0.004138131320051138,0.005871131589323922
-0.004321392275216907,0.004138131320051138,0.005871131589323922
-0.004320762275216907,0.004475215576994134,0.006204752018093566
-0.004320132275216907,0.004138131320051444,0.005871131589324226
-0.004319502275216907,0.004138131320051138,0.006204752018093718
-0.004318872275216906,0.004138131320051751,0.006871992875633916
-0.004318242275216906,0.004812299833937283,0.007539233733172447
-0.004317612275216907,0.004475215576994288,0.006538372446863514
-0.004316982275216907,0.004475215576994288,0.006871992875633158
-0.004316352275216907,0.004138131320051444,0.006204752018094325
-0.004315722275216907,0.003801047063107989,0.005871131589323922
-0.004315092275216906,0.004475215576994901,0.006204752018094325
-0.004314462275216906,0.005149384090880432,0.006871992875633158
-0.004313832275216907,0.004812299833937436,0.006538372446863514
-0.004313202275216907,0.005149384090880432,0.007205613304402802
-0.004312572275216907,0.004138131320052058,0.006538372446864121
-0.004311942275216907,0.003801047063108449,0.006871992875633158
-0.004311312275216907,0.004812299833937436,0.006538372446863514
-0.004310682275216906,0.00514938409088028,0.007205613304402802
-0.004310052275216907,0.004812299833937436,0.006871992875633613
-0.004309422275216907,0.004812299833937436,0.007539233733172902
-0.004308792275216907,0.004812299833937436,0.007205613304403257
-0.004308162275216907,0.004475215576994594,0.007205613304403106
-0.004307532275216907,0.004138131320051138,0.006871992875633309
-0.004306902275216906,0.004475215576993982,0.007205613304402196
-0.004306272275216906,0.004138131320051138,0.006204752018093718
-0.004305642275216907,0.004138131320051138,0.006204752018093718
-0.004305012275216907,0.005149384090880126,0.00720561330440265
-0.004304382275216907,0.00582355260476627,0.008540095019481076
-0.004303752275216907,0.006160636861710033,0.008206474590712495
-0.004303122275216907,0.005823552604767037,0.007539233733173206
-0.004302492275216906,0.004475215576993674,0.004870270303013927
-0.004301862275216907,0.003126878549221692,0.003535788587935349
-0.004301232275216907,0.003126878549221692,0.004203029445474942
-0.004300602275216907,0.003463962806164687,0.005203890731783874
-0.004299972275216907,0.003463962806165147,0.005871131589324074
-0.004299342275216907,0.004138131320051138,0.006204752018093718
-0.004298712275216906,0.004138131320051444,0.005537511160554429
-0.004298082275216907,0.004475215576993982,0.00587113158932377
-0.004297452275216907,0.003801047063107989,0.005537511160554126
-0.004296822275216907,0.004138131320050985,0.00587113158932377
-0.004296192275216907,0.004138131320051138,0.005871131589323922
-0.004295562275216907,0.003801047063107989,0.005537511160554126
-0.004294932275216906,0.003801047063107989,0.005871131589324832
-0.004294302275216906,0.003801047063108296,0.006871992875633158
-0.004293672275216907,0.004475215576994288,0.006538372446863514
-0.004293042275216907,0.004475215576994288,0.006871992875633158
-0.004292412275216907,0.004475215576994288,0.006538372446863817
-0.004291782275216907,0.004138131320051138,0.006204752018093718
-0.004291152275216907,0.004475215576994134,0.005537511160554429
-0.004290522275216906,0.004138131320051444,0.006204752018093414
-0.004289892275216907,0.004475215576994134,0.005871131589323618
-0.004289262275216907,0.004138131320051138,0.005203890731784329
-0.004288632275216907,0.004475215576994134,0.005203890731784329
-0.004288002275216907,0.003801047063108603,0.005871131589323315
-0.004287372275216907,0.003463962806164841,0.005537511160554126
-0.004286742275216906,0.003801047063108603,0.005537511160553822
-0.004286112275216906,0.004475215576994288,0.005203890731784633
-0.004285482275216907,0.004475215576994288,0.005871131589323922
-0.004284852275216907,0.004812299833937283,0.005871131589323922
-0.004284222275216907,0.004475215576994594,0.006204752018093414
-0.004283592275216907,0.004475215576994288,0.005537511160554126
-0.004282962275216906,0.004812299833937436,0.005871131589323922
-0.004282332275216906,0.004812299833937283,0.005871131589323922
-0.004281702275216907,0.004475215576994288,0.005871131589323922
-0.004281072275216907,0.004138131320051292,0.005203890731784633
-0.004280442275216907,0.004812299833936823,0.0065383724468623
-0.004279812275216907,0.005149384090880739,0.007205613304403561
-0.004279182275216907,0.005486468347823735,0.008206474590712495
-0.004278552275216906,0.005486468347822202,0.007539233733171081
-0.004277922275216907,0.003801047063107836,0.005537511160553519
-0.004277292275216907,0.003463962806164841,0.004203029445474942
-0.004276662275216907,0.003801047063107836,0.004203029445474942
-0.004276032275216907,0.003801047063107989,0.004870270303013927
-0.004275402275216907,0.004138131320051138,0.005871131589323922
-0.004274772275216906,0.004475215576994594,0.006204752018094021
-0.004274142275216906,0.004812299833937283,0.006538372446863514
-0.004273512275216907,0.004475215576994288,0.006538372446863514
-0.004272882275216907,0.003801047063108296,0.006204752018093869
-0.004272252275216907,0.003801047063107989,0.005871131589324226
-0.004271622275216907,0.004138131320051138,0.006204752018093718
-0.004270992275216907,0.004475215576994134,0.006871992875633006
-0.004270362275216906,0.004475215576994288,0.006871992875633613
-0.004269732275216907,0.004475215576994288,0.007539233733172902
-0.004269102275216907,0.005149384090880586,0.007205613304403106
-0.004268472275216907,0.005149384090880586,0.007205613304403106
-0.004267842275216907,0.00514938409088028,0.007872854161942243
-0.004267212275216907,0.004475215576994288,0.006871992875633309
-0.004266582275216906,0.004475215576994594,0.007205613304403409
-0.004265952275216906,0.00481229983393713,0.00753923373317275
-0.004265322275216907,0.004138131320051138,0.007205613304403106
-0.004264692275216907,0.004475215576994134,0.006204752018094173
-0.004264062275216907,0.004475215576994288,0.00653837244686321
-0.004263432275216907,0.004812299833937436,0.006538372446863514
-0.004262802275216906,0.004475215576993982,0.005871131589323922
-0.004262172275216906,0.004138131320051292,0.005871131589324226
-0.004261542275216907,0.004475215576994288,0.006538372446863514
-0.004260912275216907,0.004475215576994288,0.006204752018093869
-0.004260282275216907,0.00481229983393713,0.00653837244686321
-0.004259652275216907,0.004475215576994288,0.006538372446863514
-0.004259022275216907,0.004475215576994288,0.006204752018093869
-0.004258392275216906,0.004475215576994901,0.006204752018094931
-0.004257762275216907,0.005149384090880586,0.007539233733173054
-0.004257132275216907,0.005149384090880586,0.007872854161942697
-0.004256502275216907,0.00481229983393759,0.008206474590712344
-0.004255872275216907,0.004138131320051751,0.006871992875634523
-0.004255242275216907,0.003126878549221692,0.003869409016705146
-0.004254612275216906,0.003126878549221692,0.003535788587935349
-0.004253982275216906,0.003126878549221998,0.003535788587935501
-0.004253352275216907,0.003801047063107989,0.003869409016705146
-0.004252722275216907,0.003801047063107989,0.004870270303014079
-0.004252092275216907,0.004475215576993674,0.005871131589323012
-0.004251462275216907,0.003801047063107989,0.006204752018093718
-0.004250832275216907,0.003801047063107989,0.005871131589324074
-0.004250202275216906,0.003463962806164994,0.005537511160554126
-0.004249572275216907,0.003801047063107989,0.005537511160554126
-0.004248942275216907,0.004138131320050985,0.005537511160554126
-0.004248312275216907,0.004138131320051138,0.005537511160554126
-0.004247682275216907,0.004475215576994441,0.005871131589324074
-0.004247052275216907,0.004812299833937436,0.006204752018093718
-0.004246422275216906,0.004475215576993982,0.006204752018093414
-0.004245792275216907,0.004138131320051138,0.005871131589324074
-0.004245162275216907,0.004138131320051138,0.006204752018093718
-0.004244532275216907,0.003801047063108143,0.005871131589324074
-0.004243902275216907,0.004138131320050832,0.005871131589323922
-0.004243272275216907,0.004475215576994288,0.006204752018093718
-0.004242642275216906,0.003801047063107989,0.005871131589323922
-0.004242012275216906,0.003801047063108143,0.00587113158932377
-0.004241382275216907,0.004138131320051138,0.005537511160554126
-0.004240752275216907,0.004138131320051138,0.005537511160554126
-0.004240122275216907,0.004475215576993982,0.005871131589323618
