csv data/C=1nF, R=240kΩ, Circuits du troisième ordre.csv

#Digilent WaveForms Oscilloscope Acquisition
#Device Name: Discovery2
#Serial Number: SN:210321AD5905
#Date Time: 2022-07-04 13:58:18.782
#Sample rate: 1.5873e+06Hz
#Samples: 8192
#Trigger: Source: Channel 1 Type: Edge Condition: Rising Level: 0 V Hyst.: Auto HoldOff: 100 ns
#Channel 1: Range: 500 mV/div Offset: 0 V Attenuation: 1 X Sample Mode: Average
#Channel 2: Range: 500 mV/div Offset: 0 V Attenuation: 1 X Sample Mode: Average
#Wavegen Channel 1: Running
#Mode: Custom
#Type: 3.0.csv
#Frequency: 250 Hz
#Period: 4 ms
#Amplitude: 2 V
#Offset: 0 V
#Phase: 0 бу

Time (s),Channel 1 (V),Channel 2 (V)
-0.004680534035916824,0.009531479431141522,0.003202168159165554
-0.004679904035916825,0.0112169007158565,0.003869409016704842
-0.004679274035916824,0.0125652377436268,0.004203029445474032
-0.004678644035916824,0.009194395174196688,0.003202168159165554
-0.004678014035916825,0.005486468347823735,0.003202168159165554
-0.004677384035916825,0.00110437300756479,0.002868547730395909
-0.004676754035916825,-0.001929385304922785,0.002868547730395758
-0.004676124035916824,-0.003614806589641289,0.002868547730395758
-0.004675494035916824,-0.003277722332697527,0.002534927301625658
-0.004674864035916824,-0.002603553818810922,0.002201306872856166
-0.004674234035916824,-0.0005810482771529478,0.002201306872856166
-0.004673604035916825,0.001441457264505026,0.00253492730162581
-0.004672974035916825,0.004138131320048685,0.002868547730395454
-0.004672344035916824,0.005823552604766883,0.003202168159165554
-0.004671714035916824,0.006834805375596331,0.002868547730396061
-0.004671084035916824,0.006834805375596331,0.003202168159165402
-0.004670454035916824,0.006834805375596331,0.002868547730395758
-0.004669824035916825,0.006160636861710339,0.002534927301626114
-0.004669194035916825,0.004812299833938663,0.002534927301625962
-0.004668564035916824,0.003801047063108143,0.002868547730395758
-0.004667934035916825,0.004138131320051138,0.002868547730395758
-0.004667304035916824,0.004475215576994594,0.002868547730395758
-0.004666674035916824,0.004812299833936977,0.002868547730395606
-0.004666044035916824,0.003801047063107989,0.002534927301625962
-0.004665414035916825,0.003463962806164994,0.002534927301625962
-0.004664784035916825,0.004138131320050525,0.003202168159164947
-0.004664154035916824,0.004475215576994288,0.003202168159165554
-0.004663524035916824,0.004475215576994288,0.00320216815916525
-0.004662894035916824,0.004475215576994441,0.002868547730395909
-0.004662264035916824,0.004812299833937436,0.003202168159165554
-0.004661634035916825,0.004812299833937436,0.002868547730395909
-0.004661004035916825,0.005486468347823121,0.002534927301626265
-0.004660374035916824,0.005149384090880586,0.002534927301625962
-0.004659744035916825,0.004475215576994594,0.002868547730395606
-0.004659114035916824,0.004475215576994288,0.002868547730395606
-0.004658484035916824,0.004475215576994288,0.002534927301625962
-0.004657854035916825,0.004812299833937436,0.002868547730395758
-0.004657224035916825,0.005149384090880432,0.003202168159165402
-0.004656594035916824,0.005149384090880432,0.003535788587935349
-0.004655964035916824,0.004812299833937436,0.003535788587935349
-0.004655334035916824,0.00582355260476811,0.003202168159165554
-0.004654704035916824,0.007171889632540553,0.003202168159165554
-0.004654074035916824,0.009531479431141522,0.003202168159165554
-0.004653444035916825,0.01189106922974249,0.004203029445474487
-0.004652814035916825,0.01323940625751494,0.003869409016705449
-0.004652184035916824,0.009868563688084671,0.003869409016705146
-0.004651554035916824,0.005486468347819749,0.003535788587934743
-0.004650924035916824,0.001104373007561571,0.002868547730395454
-0.004650294035916824,-0.001592301047982395,0.002201306872856166
-0.004649664035916825,-0.002940638075754378,0.00253492730162581
-0.004649034035916825,-0.003277722332697834,0.002201306872856469
-0.004648404035916824,-0.001929385304925544,0.002201306872856166
-0.004647774035916825,0.0004302044936754265,0.002868547730395454
-0.004647144035916824,0.003126878549223225,0.002534927301625962
-0.004646514035916824,0.004812299833938203,0.002534927301626114
-0.004645884035916825,0.006497721118653182,0.002868547730395758
-0.004645254035916825,0.006497721118653182,0.003202168159165402
-0.004644624035916825,0.007508973889481709,0.003202168159165554
-0.004643994035916824,0.00717188963253948,0.003202168159165554
-0.004643364035916824,0.007171889632539174,0.002868547730396061
-0.004642734035916824,0.006834805375596178,0.003202168159165705
-0.004642104035916824,0.006497721118653182,0.003535788587935349
-0.004641474035916825,0.005149384090881199,0.003202168159165705
-0.004640844035916825,0.004475215576994901,0.003202168159165554
-0.004640214035916824,0.004138131320051138,0.003202168159165554
-0.004639584035916825,0.003126878549222152,0.002534927301626265
-0.004638954035916824,0.003126878549222611,0.002534927301626114
-0.004638324035916824,0.005149384090880586,0.002868547730395758
-0.004637694035916825,0.005149384090880586,0.002868547730395758
-0.004637064035916825,0.005149384090880586,0.002201306872856773
-0.004636434035916824,0.005149384090880586,0.002534927301626265
-0.004635804035916825,0.005149384090880586,0.003202168159165554
-0.004635174035916824,0.005149384090881199,0.002868547730396061
-0.004634544035916824,0.005823552604766577,0.003202168159165402
-0.004633914035916824,0.005149384090880586,0.002868547730395758
-0.004633284035916825,0.00481229983393759,0.002868547730395758
-0.004632654035916825,0.004812299833937436,0.002868547730395758
-0.004632024035916824,0.004812299833937436,0.002534927301625962
-0.004631394035916824,0.004812299833938663,0.002868547730396061
-0.004630764035916824,0.006160636861710646,0.003202168159165554
-0.004630134035916824,0.007508973889482629,0.003202168159165554
-0.004629504035916825,0.009868563688083597,0.003535788587935198
-0.004628874035916825,0.01222815348668457,0.003535788587935349
-0.004628244035916824,0.01189106922974357,0.003869409016705146
-0.004627614035916825,0.00852022666031361,0.003869409016705146
-0.004626984035916824,0.004138131320049146,0.003202168159165402
-0.004626354035916824,-0.0002439640202097987,0.002868547730395758
-0.004625724035916825,-0.00327772233269814,0.002868547730395758
-0.004625094035916825,-0.005300227874356115,0.002868547730395758
-0.004624464035916824,-0.004626059360469663,0.00253492730162581
-0.004623834035916824,-0.002266469561868693,0.002201306872856166
-0.004623204035916824,-0.0002439640202079593,0.002534927301626265
-0.004622574035916824,0.001778541521450015,0.002868547730395758
-0.004621944035916824,0.003801047063107989,0.002868547730395758
-0.004621314035916825,0.005486468347822968,0.003535788587935046
-0.004620684035916825,0.00616063686170942,0.003535788587935349
-0.004620054035916824,0.006834805375596331,0.003202168159165554
-0.004619424035916824,0.006497721118652568,0.002534927301625962
-0.004618794035916824,0.00582355260476673,0.002534927301625962
-0.004618164035916824,0.005486468347823735,0.002534927301625962
-0.004617534035916825,0.005149384090880739,0.002534927301625962
-0.004616904035916825,0.004138131320052058,0.002201306872856469
-0.004616274035916824,0.003463962806164841,0.002534927301625962
-0.004615644035916825,0.004138131320050831,0.002534927301625962
-0.004615014035916824,0.003463962806165454,0.002201306872856166
-0.004614384035916824,0.004138131320051444,0.002201306872856166
-0.004613754035916824,0.004812299833937436,0.002201306872856166
-0.004613124035916825,0.005149384090880432,0.002868547730395454
-0.004612494035916825,0.005149384090880586,0.002868547730395758
-0.004611864035916824,0.005486468347823735,0.002868547730395758
-0.004611234035916824,0.005486468347823121,0.002534927301625658
-0.004610604035916824,0.004812299833937283,0.002201306872856166
-0.004609974035916824,0.004475215576994288,0.002201306872856166
-0.004609344035916825,0.005149384090880279,0.002201306872856166
-0.004608714035916825,0.005486468347823428,0.002534927301625658
-0.004608084035916824,0.005149384090880586,0.002868547730395758
-0.004607454035916825,0.004138131320051598,0.002868547730395758
-0.004606824035916824,0.004812299833937896,0.002868547730395758
-0.004606194035916824,0.005823552604766883,0.002868547730395758
-0.004605564035916825,0.00852022666031085,0.003202168159165402
-0.004604934035916825,0.01020564794502629,0.003535788587935046
-0.004604304035916824,0.0125652377436294,0.003535788587935501
-0.004603674035916825,0.01155398497280042,0.003869409016705146
-0.004603044035916824,0.008857310917251546,0.003202168159164947
-0.004602414035916824,0.004812299833935597,0.002534927301625658
-0.004601784035916824,0.0007672887506196483,0.00186768644408637
-0.004601154035916825,-0.001929385304924317,0.001534066015316725
-0.004600524035916825,-0.002940638075754071,0.001200445586547081
-0.004599894035916824,-0.002603553818811842,0.001534066015316574
-0.004599264035916824,-0.0005810482771511083,0.002534927301626265
-0.004598634035916824,0.001441457264507019,0.002868547730395758
-0.004598004035916824,0.003801047063107989,0.002868547730395758
-0.004597374035916825,0.005149384090879973,0.002868547730395758
-0.004596744035916825,0.006497721118651955,0.002868547730395758
-0.004596114035916824,0.006497721118653182,0.002868547730395758
-0.004595484035916825,0.006834805375596178,0.002868547730395758
-0.004594854035916824,0.006834805375596485,0.003535788587935198
-0.004594224035916824,0.007171889632539326,0.00320216815916525
-0.004593594035916825,0.006834805375596331,0.002534927301625962
-0.004592964035916825,0.006497721118653335,0.002534927301625962
-0.004592334035916824,0.00481229983393713,0.002201306872856166
-0.004591704035916824,0.004138131320051138,0.002201306872856166
-0.004591074035916824,0.004475215576993982,0.002201306872856166
-0.004590444035916824,0.004138131320051292,0.002201306872856014
-0.004589814035916824,0.004475215576994288,0.00186768644408637
-0.004589184035916825,0.004812299833937283,0.00186768644408637
-0.004588554035916825,0.004812299833937436,0.002534927301625355
-0.004587924035916824,0.005149384090880586,0.002868547730395758
-0.004587294035916824,0.00582355260476627,0.002534927301626265
-0.004586664035916824,0.00514938409088028,0.002868547730395909
-0.004586034035916824,0.004475215576994288,0.003202168159165554
-0.004585404035916825,0.005149384090880279,0.003202168159165554
-0.004584774035916825,0.004812299833937743,0.003535788587935046
-0.004584144035916824,0.004812299833937436,0.002868547730395758
-0.004583514035916825,0.005149384090880586,0.002868547730395758
-0.004582884035916824,0.00514938409088028,0.002201306872856469
-0.004582254035916824,0.004812299833937743,0.002534927301625962
-0.004581624035916824,0.005486468347823735,0.002534927301625962
-0.004580994035916825,0.006497721118652722,0.002868547730395606
-0.004580364035916825,0.009868563688081606,0.002868547730395758
-0.004579734035916824,0.01357649051445931,0.003535788587935349
-0.004579104035916824,0.01256523774362618,0.004203029445474335
-0.004578474035916824,0.008520226660309623,0.003535788587935046
-0.004577844035916824,0.003126878549221692,0.002868547730395758
-0.004577214035916825,-0.0009181325340942566,0.002534927301626114
-0.004576584035916825,-0.003277722332695994,0.002201306872856469
-0.004575954035916824,-0.003951890846584438,0.00186768644408637
-0.004575324035916825,-0.003951890846584438,0.002534927301625658
-0.004574694035916824,-0.00226646956186762,0.00253492730162581
-0.004574064035916824,9.312023673335029e-05,0.002201306872856166
-0.004573434035916825,0.00245271003533432,0.002201306872856166
-0.004572804035916825,0.004475215576993367,0.00253492730162581
-0.004572174035916824,0.005486468347823735,0.002201306872856318
-0.004571544035916825,0.005486468347823735,0.002534927301625962
-0.004570914035916824,0.006160636861710339,0.002534927301625962
-0.004570284035916824,0.006497721118652875,0.002534927301625962
-0.004569654035916824,0.005823552604766883,0.002534927301625962
-0.004569024035916825,0.005823552604766883,0.002534927301625962
-0.004568394035916825,0.005149384090881199,0.002534927301625962
-0.004567764035916824,0.003801047063107989,0.002534927301625962
-0.004567134035916824,0.003463962806164534,0.002534927301625658
-0.004566504035916824,0.003126878549221692,0.002201306872856166
-0.004565874035916824,0.003126878549221692,0.002201306872856166
-0.004565244035916825,0.004475215576993674,0.002868547730395454
-0.004564614035916825,0.005486468347822815,0.002868547730395758
-0.004563984035916824,0.005149384090880586,0.003202168159165554
-0.004563354035916825,0.00481229983393759,0.002868547730395909
-0.004562724035916824,0.005149384090880586,0.002868547730395909
-0.004562094035916824,0.005149384090880892,0.003202168159165402
-0.004561464035916825,0.005823552604766883,0.002868547730395758
-0.004560834035916825,0.005486468347823888,0.002534927301626114
-0.004560204035916824,0.005149384090880586,0.002534927301626114
-0.004559574035916824,0.005149384090880586,0.002868547730395758
-0.004558944035916824,0.005149384090880586,0.002868547730396061
-0.004558314035916824,0.005149384090880586,0.00320216815916525
-0.004557684035916824,0.005149384090880586,0.002534927301625962
-0.004557054035916825,0.00717188963253856,0.002534927301625962
-0.004556424035916825,0.008857310917253692,0.003202168159164947
-0.004555794035916824,0.01087981645891412,0.003535788587935349
-0.004555164035916824,0.01290232200057179,0.003535788587935349
-0.004554534035916824,0.01155398497279873,0.003535788587935349
-0.004553904035916824,0.007846058146425777,0.003535788587935349
-0.004553274035916825,0.003801047063109829,0.002868547730396061
-0.004552644035916825,-0.0005810482771489624,0.002534927301626265
-0.004552014035916824,-0.00327772233269814,0.002201306872856166
-0.004551384035916825,-0.004626059360470736,0.002201306872856166
-0.004550754035916824,-0.003277722332695994,0.002201306872856166
-0.004550124035916824,-0.0009181325340950236,0.002201306872856014
-0.004549494035916824,0.001441457264505946,0.00186768644408637
-0.004548864035916825,0.003801047063106917,0.002534927301625658
-0.004548234035916825,0.005149384090879359,0.002868547730395454
-0.004547604035916824,0.006160636861710033,0.002534927301625962
-0.004546974035916824,0.006160636861710952,0.002868547730395758
-0.004546344035916824,0.007171889632539633,0.002868547730395758
-0.004545714035916824,0.007508973889482629,0.002868547730395758
-0.004545084035916825,0.00582355260476765,0.002868547730395758
-0.004544454035916825,0.006160636861709727,0.002534927301626265
-0.004543824035916824,0.005486468347823735,0.002534927301625962
-0.004543194035916825,0.005149384090880739,0.002201306872856318
-0.004542564035916824,0.004475215576994134,0.002534927301626114
-0.004541934035916824,0.004138131320051138,0.002868547730395758
-0.004541304035916825,0.003463962806165147,0.003202168159165402
-0.004540674035916825,0.005486468347822815,0.003202168159165554
-0.004540044035916824,0.00582355260476673,0.002868547730395758
-0.004539414035916824,0.005486468347823735,0.002868547730395758
-0.004538784035916824,0.005486468347824041,0.003202168159165857
-0.004538154035916824,0.005823552604766424,0.003535788587935198
-0.004537524035916824,0.004812299833937436,0.003202168159165554
-0.004536894035916825,0.003463962806165454,0.002868547730395909
-0.004536264035916825,0.004475215576993367,0.002868547730395758
-0.004535634035916824,0.005823552604766883,0.002868547730395758
-0.004535004035916824,0.005149384090880586,0.002868547730395454
-0.004534374035916824,0.00514938409088028,0.00253492730162581
-0.004533744035916824,0.004475215576994288,0.002201306872856166
-0.004533114035916825,0.004138131320051292,0.002868547730395454
-0.004532484035916825,0.006160636861708193,0.00320216815916525
-0.004531854035916824,0.009194395174198374,0.003202168159165554
-0.004531224035916825,0.01054273220197036,0.003202168159165554
-0.004530594035916824,0.01290232200057209,0.003869409016705146
-0.004529964035916824,0.01087981645891228,0.003869409016704691
-0.004529334035916825,0.006834805375596331,0.002868547730395758
-0.004528704035916825,0.00211562577839439,0.003202168159165402
-0.004528074035916824,-0.001255216791040319,0.002534927301625658
-0.004527444035916824,-0.003614806589641289,0.00186768644408637
-0.004526814035916824,-0.004288975103526668,0.001534066015316877
-0.004526184035916824,-0.00327772233269722,0.00186768644408637
-0.004525554035916824,-0.001255216791039246,0.00186768644408637
-0.004524924035916825,0.00144145726450472,0.002201306872856014
-0.004524294035916825,0.003801047063105844,0.002534927301625658
-0.004523664035916824,0.005149384090880586,0.002201306872856166
-0.004523034035916824,0.005486468347823428,0.002534927301625962
-0.004522404035916824,0.005149384090881046,0.002534927301626265
-0.004521774035916824,0.006160636861710033,0.003202168159165554
-0.004521144035916825,0.006834805375596024,0.002868547730395909
-0.004520514035916825,0.006834805375596331,0.002534927301626265
-0.004519884035916824,0.005486468347823735,0.002201306872856166
-0.004519254035916825,0.004138131320051138,0.002201306872856166
-0.004518624035916824,0.003463962806165454,0.002201306872856166
-0.004517994035916824,0.004138131320051292,0.002201306872856166
-0.004517364035916824,0.004475215576994288,0.002201306872856166
-0.004516734035916825,0.004138131320051292,0.001867686444086521
-0.004516104035916825,0.004812299833936823,0.002534927301625355
-0.004515474035916824,0.005149384090880586,0.002868547730395758
-0.004514844035916824,0.00481229983393805,0.002534927301626265
-0.004514214035916824,0.005486468347823888,0.002868547730395606
-0.004513584035916824,0.005823552604766883,0.002534927301625962
-0.004512954035916825,0.005486468347823888,0.002868547730395606
-0.004512324035916825,0.00481229983393805,0.00320216815916525
-0.004511694035916824,0.005149384090880586,0.003202168159165554
-0.004511064035916825,0.00481229983393759,0.002868547730395909
-0.004510434035916824,0.005149384090880586,0.002534927301626265
-0.004509804035916824,0.005149384090880586,0.003202168159165554
-0.004509174035916825,0.00481229983393759,0.002868547730395909
-0.004508544035916825,0.005149384090880432,0.002868547730395758
-0.004507914035916824,0.004475215576994134,0.002201306872856318
-0.004507284035916824,0.004138131320051138,0.002534927301625962
-0.004506654035916824,0.00548646834782588,0.002868547730395758
-0.004506024035916824,0.007846058146426851,0.002868547730395758
-0.004505394035916824,0.01020564794502782,0.002868547730395758
-0.004504764035916825,0.0115539849727998,0.002868547730395758
-0.004504134035916825,0.01290232200057179,0.003535788587934743
-0.004503504035916824,0.01054273220197097,0.003535788587935349
-0.004502874035916824,0.007508973889478643,0.003202168159165554
-0.004502244035916824,0.003126878549219852,0.003202168159165099
-0.004501614035916824,-0.0009181325340960967,0.002201306872856166
-0.004500984035916825,-0.003277722332697067,0.001534066015316877
-0.004500354035916825,-0.002940638075755298,0.001867686444086066
-0.004499724035916824,-0.002266469561868693,0.00186768644408637
-0.004499094035916825,-0.0002439640202107187,0.001534066015316725
-0.004498464035916824,0.001778541521451242,0.002534927301626265
-0.004497834035916824,0.004138131320051905,0.002868547730396061
-0.004497204035916825,0.005823552604766883,0.003535788587935349
-0.004496574035916825,0.006834805375595871,0.002868547730396061
-0.004495944035916824,0.007171889632539786,0.002534927301625962
-0.004495314035916824,0.007846058146425777,0.002534927301625962
-0.004494684035916824,0.007508973889482015,0.002534927301626265
-0.004494054035916824,0.006834805375596025,0.002868547730395606
-0.004493424035916824,0.006160636861710033,0.002534927301625962
-0.004492794035916825,0.00481229983393805,0.002534927301625962
-0.004492164035916825,0.004138131320051751,0.002868547730395454
-0.004491534035916824,0.004138131320051138,0.002868547730395758
-0.004490904035916824,0.004475215576993674,0.002534927301625355
-0.004490274035916824,0.003801047063107836,0.00186768644408637
