C=0.15nF, R=+∞, Circuits du premier ordre.csv

#Digilent WaveForms Oscilloscope Acquisition
#Device Name: Discovery2
#Serial Number: SN:210321AD5905
#Date Time: 2022-07-04 14:06:22.387
#Sample rate: 1.5873e+06Hz
#Samples: 8192
#Trigger: Source: Channel 1 Type: Edge Condition: Rising Level: 0 V Hyst.: Auto HoldOff: 100 ns
#Channel 1: Range: 500 mV/div Offset: 0 V Attenuation: 1 X Sample Mode: Average
#Channel 2: Range: 500 mV/div Offset: 0 V Attenuation: 1 X Sample Mode: Average
#Wavegen Channel 1: Running
#Mode: Custom
#Type: 3.0.csv
#Frequency: 250 Hz
#Period: 4 ms
#Amplitude: 2 V
#Offset: 0 V
#Phase: 0 бу

Time (s),Channel 1 (V),Channel 2 (V)
-0.00468022922459607,0.0007672887506196483,0.007539233733171992
-0.00467959922459607,0.0007672887506196483,0.008540095019481379
-0.00467896922459607,0.001104373007562797,0.01020819716333127
-0.004678339224596069,0.001441457264505946,0.01220991973595217
-0.00467770922459607,0.0014414572645061,0.01454526273733907
-0.00467707922459607,0.001778541521449096,0.01554612402364801
-0.00467644922459607,0.002115625778392091,0.01521250359487836
-0.00467581922459607,0.002452710035335087,0.0158797444524172
-0.00467518922459607,0.001778541521449096,0.01654698530995739
-0.00467455922459607,0.002115625778392091,0.0158797444524181
-0.004673929224596069,0.002115625778391938,0.0155461240236474
-0.00467329922459607,0.001778541521448942,0.01487888316610841
-0.00467266922459607,0.001441457264505946,0.01487888316610841
-0.00467203922459607,0.001104373007562951,0.01454526273733877
-0.00467140922459607,0.001441457264505946,0.01487888316610841
-0.00467077922459607,0.001441457264505946,0.01487888316610841
-0.004670149224596069,0.001441457264505946,0.01554612402364831
-0.00466951922459607,0.0014414572645061,0.01587974445241765
-0.00466888922459607,0.001778541521449096,0.01554612402364801
-0.00466825922459607,0.001778541521449096,0.01454526273733907
-0.00466762922459607,0.002115625778391938,0.01454526273733862
-0.00466699922459607,0.002115625778392244,0.01554612402364801
-0.004666369224596069,0.002452710035335087,0.016546985309958
-0.00466573922459607,0.002115625778392551,0.01721422616749759
-0.00466510922459607,0.002789794292278542,0.01854870788257617
-0.00466447922459607,0.00380104706310753,0.01988318959765475
-0.00466384922459607,0.003463962806165147,0.02188491217027231
-0.00466321922459607,0.002789794292278542,0.02121767131273332
-0.00466258922459607,0.002789794292278542,0.01854870788257617
-0.004661959224596069,0.001778541521448176,0.01454526273733619
-0.00466132922459607,0.000767288750619495,0.01187629930717904
-0.00466069922459607,0.0004302044936764993,0.009207335877021881
-0.00466006922459607,9.31202367335036e-05,0.008540095019482594
-0.004659439224596071,9.312023673335029e-05,0.008873715448251782
-0.00465880922459607,0.0007672887506196483,0.01020819716333127
-0.004658179224596069,0.00110437300756341,0.01220991973595187
-0.00465754922459607,0.001778541521449249,0.01421164230856943
-0.00465691922459607,0.002115625778392244,0.01554612402364801
-0.00465628922459607,0.002115625778392244,0.01688060573872658
-0.00465565922459607,0.002115625778392244,0.0165469853099577
-0.00465502922459607,0.002452710035335393,0.01654698530995739
-0.00465439922459607,0.002789794292278389,0.0158797444524181
-0.004653769224596069,0.002452710035335087,0.01454526273733786
-0.00465313922459607,0.001778541521449096,0.01287716059348964
-0.00465250922459607,0.001778541521449096,0.01421164230856882
-0.00465187922459607,0.001778541521449096,0.01421164230856882
-0.00465124922459607,0.001778541521449096,0.01421164230856837
-0.00465061922459607,0.001778541521449096,0.01321078102225943
-0.004649989224596069,0.001441457264506253,0.01321078102225974
-0.00464935922459607,0.001778541521449096,0.01354440145102968
-0.00464872922459607,0.001778541521449096,0.01454526273733862
-0.00464809922459607,0.001778541521449096,0.01421164230856897
-0.00464746922459607,0.001441457264506253,0.01421164230856882
-0.00464683922459607,0.001778541521449096,0.01421164230856882
-0.004646209224596069,0.001441457264505946,0.01421164230856821
-0.00464557922459607,0.001441457264506253,0.01354440145102968
-0.00464494922459607,0.002115625778392244,0.01454526273733862
-0.00464431922459607,0.00245271003533524,0.01688060573872613
-0.00464368922459607,0.002452710035335393,0.01854870788257465
-0.00464305922459607,0.002789794292278542,0.01988318959765535
-0.00464242922459607,0.002452710035335546,0.01888232831134642
-0.004641799224596069,0.002115625778391631,0.01688060573872415
-0.00464116922459607,0.00144145726450564,0.01354440145102771
-0.00464053922459607,0.0007672887506196483,0.01020819716333127
-0.00463990922459607,9.31202367336569e-05,0.008206474590713405
-0.004639279224596071,-0.0002439640202094922,0.006538372446865031
-0.00463864922459607,-0.0005810482771529478,0.006204752018093718
-0.004638019224596069,9.312023673427002e-05,0.007205613304405836
-0.00463738922459607,0.001104373007563104,0.01020819716333233
-0.00463675922459607,0.001778541521449096,0.01254354016471984
-0.00463612922459607,0.002115625778392091,0.01354440145102877
-0.00463549922459607,0.002115625778392244,0.01421164230856821
-0.00463486922459607,0.001778541521449096,0.01421164230856882
-0.004634239224596069,0.001778541521449402,0.01487888316610932
-0.00463360922459607,0.002115625778392244,0.01587974445241735
-0.00463297922459607,0.002115625778392244,0.01487888316610841
-0.00463234922459607,0.00245271003533524,0.01487888316610841
-0.00463171922459607,0.002452710035335393,0.01387802187979994
-0.00463108922459607,0.002115625778392244,0.01354440145102923
-0.00463045922459607,0.002115625778392244,0.01354440145102923
-0.004629829224596069,0.00245271003533478,0.01421164230856852
-0.00462919922459607,0.001778541521448942,0.01387802187979888
-0.00462856922459607,0.001441457264505946,0.01354440145102923
-0.00462793922459607,0.001778541521448942,0.01421164230856852
-0.00462730922459607,0.00245271003533478,0.01454526273733831
-0.00462667922459607,0.002789794292278542,0.01487888316610841
-0.004626049224596069,0.002789794292278542,0.01654698530995861
-0.00462541922459607,0.002789794292278849,0.01788146702503779
-0.00462478922459607,0.003463962806164841,0.02055043045519495
-0.00462415922459607,0.003463962806164841,0.02188491217027352
-0.00462352922459607,0.003126878549221998,0.02055043045519616
-0.00462289922459607,0.002452710035335393,0.01821508745380637
-0.00462226922459607,0.001778541521449402,0.01587974445241886
-0.004621639224596069,0.001104373007562491,0.01220991973594883
-0.00462100922459607,0.0004302044936764993,0.009540956305791678
-0.00462037922459607,0.0004302044936764993,0.007539233733172902
-0.00461974922459607,0.0004302044936764993,0.008206474590712191
-0.00461911922459607,0.001104373007563104,0.009540956305792436
-0.00461848922459607,0.001778541521449096,0.01120905844964066
-0.004617859224596069,0.001778541521449096,0.01287716059349146
-0.00461722922459607,0.001778541521449402,0.01487888316610902
-0.00461659922459607,0.002452710035335393,0.0162133648811876
-0.00461596922459607,0.002789794292278389,0.01654698530995724
-0.00461533922459607,0.003126878549221385,0.01654698530995739
-0.00461470922459607,0.003126878549221692,0.01721422616749698
-0.004614079224596069,0.001778541521449402,0.0162133648811876
-0.00461344922459607,0.002115625778392244,0.01621336488118745
-0.00461281922459607,0.002115625778392244,0.0158797444524178
-0.00461218922459607,0.002115625778392244,0.01487888316610887
-0.00461155922459607,0.002115625778392244,0.01421164230856943
-0.00461092922459607,0.001441457264505946,0.01487888316610841
-0.00461029922459607,0.001441457264505946,0.01454526273733877
-0.004609669224596069,0.001778541521449096,0.01421164230856852
-0.00460903922459607,0.001778541521449249,0.01387802187979903
-0.00460840922459607,0.002115625778392244,0.01387802187979903
-0.00460777922459607,0.002115625778392244,0.01487888316610796
-0.004607149224596071,0.002452710035335087,0.01654698530995588
-0.00460651922459607,0.002789794292278542,0.01821508745380637
-0.004605889224596069,0.002789794292278849,0.01921594874011697
-0.00460525922459607,0.003126878549221539,0.0205504304551951
-0.00460462922459607,0.002789794292278542,0.02088405088396474
-0.00460399922459607,0.002452710035335546,0.0175478465962683
-0.00460336922459607,0.001778541521449709,0.01321078102226338
-0.00460273922459607,0.001104373007562797,0.009874576734561474
-0.004602109224596069,0.0007672887506190352,0.007539233733172295
-0.00460147922459607,9.312023673335029e-05,0.006871992875633309
-0.00460084922459607,9.312023673335029e-05,0.006871992875633309
-0.00460021922459607,0.0007672887506193417,0.007872854161942243
-0.00459958922459607,0.001778541521448176,0.009874576734559652
-0.00459895922459607,0.002115625778392091,0.01120905844964157
-0.00459832922459607,0.001778541521449096,0.01321078102225943
-0.004597699224596069,0.002452710035335393,0.01454526273733922
-0.00459706922459607,0.002452710035335393,0.01521250359487821
-0.00459643922459607,0.002452710035335393,0.01521250359487821
-0.00459580922459607,0.002789794292278389,0.01487888316610857
-0.00459517922459607,0.002789794292278542,0.01387802187979994
-0.00459454922459607,0.002115625778392244,0.01321078102225943
-0.004593919224596069,0.001441457264505946,0.01254354016471924
-0.00459328922459607,0.001441457264505946,0.01187629930718055
-0.00459265922459607,0.001441457264505946,0.01254354016471984
-0.00459202922459607,0.001778541521448942,0.01254354016471984
-0.00459139922459607,0.001441457264506253,0.01187629930718086
-0.00459076922459607,0.001441457264505946,0.01220991973595005
-0.00459013922459607,0.001778541521448942,0.01354440145102862
-0.004589509224596069,0.002115625778392397,0.01654698530995861
-0.00458887922459607,0.002452710035335393,0.01921594874011576
-0.00458824922459607,0.003126878549221692,0.02021681002642515
-0.00458761922459607,0.003126878549221692,0.02088405088396444
-0.00458698922459607,0.002452710035335087,0.01721422616749547
-0.00458635922459607,0.001778541521449096,0.01387802187979903
-0.004585729224596069,0.0007672887506193417,0.01054181759209864
-0.00458509922459607,0.000430204493676346,0.007872854161941939
-0.00458446922459607,9.312023673335029e-05,0.006204752018093718
-0.00458383922459607,9.312023673335029e-05,0.006538372446863362
-0.00458320922459607,0.0004302044936761928,0.007872854161941483
-0.00458257922459607,0.001441457264505946,0.01054181759210107
-0.004581949224596069,0.001441457264505946,0.01154267887841227
-0.00458131922459607,0.0014414572645061,0.01354440145102984
-0.00458068922459607,0.001778541521449096,0.01487888316610841
-0.00458005922459607,0.002452710035335087,0.0155461240236477
-0.00457942922459607,0.003126878549221078,0.01554612402364801
-0.00457879922459607,0.003126878549221692,0.01521250359487821
-0.00457816922459607,0.0024527100353357,0.01421164230856928
-0.004577539224596069,0.001778541521449709,0.01487888316610963
-0.00457690922459607,0.002452710035335546,0.0162133648811873
-0.00457627922459607,0.002789794292278542,0.01554612402364801
-0.00457564922459607,0.002452710035335546,0.01454526273733907
-0.004575019224596071,0.002115625778392551,0.01454526273733862
-0.00457438922459607,0.002115625778392244,0.01454526273733862
-0.004573759224596069,0.002452710035335087,0.01487888316610963
-0.00457312922459607,0.002115625778392397,0.01621336488118836
-0.00457249922459607,0.002452710035335393,0.01788146702503658
-0.00457186922459607,0.003126878549221385,0.01921594874011515
-0.00457123922459607,0.003801047063107376,0.0218849121702717
-0.00457060922459607,0.004475215576994288,0.02255215302781372
-0.00456997922459607,0.0034639628061653,0.01954956916888692
-0.00456934922459607,0.002452710035335087,0.01554612402364649
-0.00456871922459607,0.001778541521449096,0.01220991973595005
-0.00456808922459607,0.001104373007563104,0.008873715448253602
-0.00456745922459607,9.312023673427013e-05,0.008206474590713102
-0.00456682922459607,9.312023673335029e-05,0.008206474590712949
-0.00456619922459607,9.312023673335029e-05,0.009207335877021881
-0.004565569224596069,0.0004302044936771125,0.01087543802087238
-0.00456493922459607,0.001104373007563257,0.0125435401647206
-0.00456430922459607,0.002115625778392244,0.01421164230856882
-0.00456367922459607,0.00245271003533524,0.0155461240236474
-0.00456304922459607,0.002115625778392551,0.01521250359487851
-0.00456241922459607,0.002452710035335393,0.01487888316610841
-0.004561789224596069,0.002789794292278236,0.01587974445241841
-0.00456115922459607,0.002452710035335393,0.01654698530995694
-0.00456052922459607,0.002452710035335393,0.01554612402364801
-0.00455989922459607,0.002115625778392398,0.01454526273733907
-0.00455926922459607,0.00144145726450656,0.01354440145103014
-0.00455863922459607,0.001778541521449096,0.01321078102225943
-0.00455800922459607,0.0014414572645061,0.01387802187979872
-0.004557379224596069,0.001441457264505793,0.01487888316610766
-0.00455674922459607,0.001104373007562797,0.01321078102225943
-0.00455611922459607,0.001104373007562797,0.01387802187979903
-0.00455548922459607,0.002115625778391785,0.01587974445241689
-0.00455485922459607,0.0024527100353357,0.01821508745380713
-0.00455422922459607,0.003126878549221692,0.01988318959765535
-0.004553599224596069,0.003463962806164228,0.02088405088396231
-0.00455296922459607,0.002789794292278542,0.01821508745380531
-0.00455233922459607,0.002789794292278542,0.0158797444524178
-0.00455170922459607,0.001104373007563564,0.01220991973595171
-0.00455107922459607,0.0007672887506199549,0.009540956305794105
-0.00455044922459607,9.312023673335029e-05,0.007205613304403106
-0.004549819224596069,9.312023673365686e-05,0.006871992875633309
-0.00454918922459607,0.0004302044936768059,0.006871992875633916
-0.00454855922459607,0.001104373007562797,0.008206474590712495
-0.00454792922459607,0.001441457264505793,0.009207335877021426
-0.00454729922459607,0.002115625778391631,0.01087543802086934
-0.00454666922459607,0.002115625778392244,0.01254354016471984
-0.00454603922459607,0.002115625778392244,0.01421164230856806
-0.004545409224596069,0.002115625778392244,0.01454526273733862
-0.00454477922459607,0.002115625778392091,0.01454526273733847
-0.00454414922459607,0.001778541521449096,0.01421164230856882
-0.00454351922459607,0.001778541521449096,0.01421164230856882
-0.004542889224596071,0.001778541521449096,0.01354440145102984
-0.00454225922459607,0.001441457264505946,0.01321078102225943
-0.004541629224596069,0.001441457264506253,0.01254354016472015
-0.00454099922459607,0.001778541521448942,0.01287716059348964
-0.00454036922459607,0.001441457264505946,0.01287716059348964
-0.00453973922459607,0.002115625778391938,0.01321078102225928
-0.00453910922459607,0.001778541521449402,0.01254354016472045
-0.00453847922459607,0.002115625778392244,0.01387802187979903
-0.00453784922459607,0.002115625778392244,0.01587974445241689
-0.004537219224596069,0.002789794292278696,0.01854870788257708
-0.00453658922459607,0.003126878549221692,0.02055043045519495
-0.00453595922459607,0.003463962806164687,0.0202168100264253
-0.00453532922459607,0.002452710035336313,0.01754784659626921
-0.00453469922459607,0.001778541521448482,0.01421164230856715
-0.00453406922459607,0.0004302044936764993,0.01054181759210107
-0.004533439224596069,0.0004302044936768059,0.008540095019480772
-0.00453280922459607,0.000767288750619495,0.006871992875633309
-0.00453217922459607,0.0004302044936764993,0.006871992875633309
-0.00453154922459607,0.0004302044936764993,0.007539233733172598
-0.00453091922459607,0.001441457264505027,0.00987457673455935
-0.00453028922459607,0.002115625778392244,0.01321078102225943
-0.004529659224596069,0.002452710035335393,0.01521250359487791
-0.00452902922459607,0.002452710035335393,0.01487888316610857
-0.00452839922459607,0.002452710035335393,0.01521250359487821
-0.00452776922459607,0.002115625778392398,0.0158797444524175
-0.00452713922459607,0.002452710035335087,0.01688060573872628
-0.00452650922459607,0.002115625778392244,0.0162133648811876
-0.00452587922459607,0.002115625778392244,0.01487888316610902
-0.004525249224596069,0.00245271003533524,0.01487888316610841
-0.00452461922459607,0.002115625778392244,0.01487888316610841
-0.00452398922459607,0.002115625778392244,0.01487888316610841
-0.00452335922459607,0.002115625778392244,0.01487888316610841
-0.00452272922459607,0.002115625778392244,0.01454526273733847
-0.00452209922459607,0.002115625778392244,0.01421164230856882
-0.004521469224596069,0.002115625778393471,0.01521250359488003
-0.00452083922459607,0.003463962806165147,0.0172142261674982
-0.00452020922459607,0.004138131320051138,0.01988318959765535
-0.00451957922459607,0.004475215576994134,0.02188491217027322
-0.00451894922459607,0.004475215576994288,0.02221853259904362
-0.00451831922459607,0.003463962806164841,0.01921594874011576
-0.004517689224596069,0.002115625778391631,0.01521250359487457
-0.00451705922459607,0.001441457264505793,0.01120905844963914
-0.00451642922459607,0.001104373007562797,0.007872854161942697
-0.00451579922459607,0.0007672887506198016,0.006538372446864121
-0.00451516922459607,0.0004302044936768059,0.007205613304402498
-0.00451453922459607,0.0007672887506196483,0.008873715448252086
-0.00451390922459607,0.001104373007562797,0.009874576734561474
-0.004513279224596069,0.001441457264506253,0.01154267887841197
-0.00451264922459607,0.001778541521448942,0.01321078102226004
-0.00451201922459607,0.001441457264505946,0.01454526273733862
-0.00451138922459607,0.001441457264505946,0.01487888316610826
-0.004510759224596071,0.001778541521448789,0.01454526273733892
-0.00451012922459607,0.001441457264505946,0.01487888316610841
-0.004509499224596069,0.001778541521448789,0.01487888316610841
-0.00450886922459607,0.001441457264505946,0.01487888316610811
-0.00450823922459607,0.001441457264505946,0.01421164230856882
-0.00450760922459607,0.001778541521448942,0.01354440145102953
-0.00450697922459607,0.001441457264506253,0.01321078102225974
-0.00450634922459607,0.001778541521449096,0.01287716059348964
-0.00450571922459607,0.001778541521449096,0.01287716059348964
-0.004505089224596069,0.001441457264505946,0.01287716059349009
-0.00450445922459607,0.001441457264505946,0.01387802187979903
-0.00450382922459607,0.002115625778391938,0.01554612402364725
-0.00450319922459607,0.00245271003533524,0.01688060573872658
-0.00450256922459607,0.003126878549222151,0.01888232831134688
-0.00450193922459607,0.004138131320051138,0.02088405088396474
-0.004501309224596069,0.002789794292277316,0.01821508745380243
-0.00450067922459607,0.001441457264505793,0.01387802187979751
-0.00450004922459607,0.001104373007562797,0.01054181759210107
-0.00449941922459607,0.0007672887506198016,0.008540095019483201
-0.00449878922459607,0.0007672887506196483,0.006538372446865334
-0.00449815922459607,0.0007672887506196483,0.006204752018093718
-0.004497529224596069,0.0007672887506199549,0.006538372446865031
-0.00449689922459607,0.001104373007562951,0.008206474590713405
-0.00449626922459607,0.001441457264505946,0.01020819716333127
-0.00449563922459607,0.002115625778391938,0.01187629930717949
-0.00449500922459607,0.002115625778392244,0.01354440145102771
-0.00449437922459607,0.002115625778392244,0.01421164230856882
-0.00449374922459607,0.00245271003533524,0.01421164230856882
-0.004493119224596069,0.002789794292278696,0.01454526273733877
-0.00449248922459607,0.003126878549221385,0.01487888316610796
-0.00449185922459607,0.002452710035335393,0.01387802187979903
-0.00449122922459607,0.002115625778392398,0.01321078102225974
-0.00449059922459607,0.001778541521449096,0.01321078102225928
-0.00448996922459607,0.001778541521449096,0.01287716059348964
-0.004489339224596069,0.002115625778392551,0.01287716059349025
-0.00448870922459607,0.002452710035335393,0.01354440145102908
-0.00448807922459607,0.002452710035335393,0.01321078102225943
-0.00448744922459607,0.002789794292278389,0.01354440145102908
-0.00448681922459607,0.002789794292278542,0.0148788831661072
-0.00448618922459607,0.003126878549221692,0.01754784659626678
-0.004485559224596069,0.003463962806164534,0.01888232831134779
-0.00448492922459607,0.003126878549221692,0.02088405088396474
