C=0.15nF, R=240kΩ, Circuits du premier ordre.csv

#Digilent WaveForms Oscilloscope Acquisition
#Device Name: Discovery2
#Serial Number: SN:210321AD5905
#Date Time: 2022-07-04 14:12:23.700
#Sample rate: 1.5873e+06Hz
#Samples: 8192
#Trigger: Source: Channel 1 Type: Edge Condition: Rising Level: 0 V Hyst.: Auto HoldOff: 100 ns
#Channel 1: Range: 500 mV/div Offset: 0 V Attenuation: 1 X Sample Mode: Average
#Channel 2: Range: 500 mV/div Offset: 0 V Attenuation: 1 X Sample Mode: Average
#Wavegen Channel 1: Running
#Mode: Custom
#Type: 3.0.csv
#Frequency: 250 Hz
#Period: 4 ms
#Amplitude: 2 V
#Offset: 0 V
#Phase: 0 бу

Time (s),Channel 1 (V),Channel 2 (V)
-0.004430208621370753,0.002115625778392551,0.003535788587935046
-0.004429578621370753,0.001778541521449402,0.003869409016704842
-0.004428948621370753,0.002115625778392244,0.004203029445474942
-0.004428318621370752,0.002115625778392244,0.004203029445475246
-0.004427688621370753,0.002115625778392397,0.004536649874245193
-0.004427058621370753,0.002452710035335393,0.005537511160554126
-0.004426428621370753,0.002115625778392398,0.006204752018093414
-0.004425798621370753,0.002115625778392244,0.006204752018093718
-0.004425168621370753,0.002115625778392244,0.005537511160554126
-0.004424538621370753,0.001778541521449249,0.002868547730396972
-0.004423908621370752,0.001441457264505946,0.001867686444086066
-0.004423278621370753,0.001441457264505946,0.001534066015317029
-0.004422648621370753,0.001441457264505946,0.002534927301625962
-0.004422018621370753,0.001441457264505946,0.004203029445474184
-0.004421388621370753,0.001441457264505946,0.004870270303014382
-0.004420758621370753,0.001441457264505946,0.004536649874244738
-0.004420128621370752,0.001778541521449096,0.004203029445475246
-0.004419498621370753,0.001778541521449096,0.004536649874244738
-0.004418868621370753,0.001778541521449096,0.004536649874244738
-0.004418238621370753,0.002115625778392091,0.003869409016705449
-0.004417608621370753,0.002452710035335087,0.004203029445474639
-0.004416978621370753,0.002452710035335393,0.004870270303014534
-0.004416348621370752,0.002115625778392244,0.005537511160554126
-0.004415718621370752,0.002115625778392244,0.005537511160553974
-0.004415088621370753,0.002115625778392244,0.005203890731784329
-0.004414458621370753,0.002115625778392244,0.005871131589323618
-0.004413828621370753,0.002452710035335087,0.005537511160554429
-0.004413198621370753,0.002115625778392091,0.005203890731784329
-0.004412568621370753,0.001778541521449096,0.005203890731784329
-0.004411938621370752,0.002115625778392244,0.005537511160553822
-0.004411308621370753,0.002115625778392091,0.005203890731784481
-0.004410678621370753,0.001778541521449096,0.005537511160554126
-0.004410048621370753,0.002115625778392091,0.005203890731784481
-0.004409418621370753,0.002115625778392244,0.005203890731784329
-0.004408788621370753,0.001778541521449096,0.005203890731784329
-0.004408158621370752,0.002115625778391938,0.00487027030301423
-0.004407528621370753,0.001778541521449096,0.004536649874245041
-0.004406898621370753,0.001778541521449096,0.005203890731784329
-0.004406268621370753,0.002115625778392091,0.004536649874245041
-0.004405638621370753,0.002115625778392244,0.004536649874244738
-0.004405008621370753,0.002115625778392244,0.004536649874244738
-0.004404378621370753,0.001778541521449249,0.004870270303014382
-0.004403748621370752,0.00245271003533524,0.004870270303014534
-0.004403118621370753,0.002115625778392244,0.004870270303014534
-0.004402488621370753,0.002115625778392244,0.005871131589323922
-0.004401858621370753,0.00245271003533524,0.006204752018093566
-0.004401228621370753,0.002452710035335393,0.006204752018093566
-0.004400598621370753,0.002452710035335393,0.005871131589323922
-0.004399968621370752,0.001778541521448789,0.003535788587934136
-0.004399338621370753,0.0014414572645061,0.002201306872856318
-0.004398708621370753,0.001778541521449096,0.002534927301625962
-0.004398078621370753,0.001778541521449096,0.00320216815916525
-0.004397448621370753,0.002115625778391938,0.003869409016704539
-0.004396818621370753,0.001778541521449096,0.004870270303014534
-0.004396188621370752,0.002115625778391631,0.004536649874244738
-0.004395558621370753,0.001441457264505946,0.004536649874244738
-0.004394928621370753,0.001441457264505946,0.004536649874244738
-0.004394298621370753,0.001441457264505946,0.003535788587935805
-0.004393668621370753,0.001778541521448789,0.003869409016704842
-0.004393038621370753,0.001778541521449096,0.004536649874244738
-0.004392408621370753,0.0014414572645061,0.004870270303014382
-0.004391778621370752,0.002115625778392244,0.005203890731783722
-0.004391148621370753,0.002115625778392244,0.004536649874244586
-0.004390518621370753,0.002115625778392244,0.004203029445474942
-0.004389888621370753,0.001778541521449249,0.004203029445474942
-0.004389258621370754,0.001778541521449096,0.003869409016705449
-0.004388628621370753,0.002115625778392244,0.003535788587935349
-0.004387998621370752,0.002452710035335393,0.004203029445474942
-0.004387368621370753,0.002452710035335393,0.004203029445475094
-0.004386738621370753,0.002452710035335393,0.004536649874244738
-0.004386108621370753,0.002452710035335393,0.004203029445475094
-0.004385478621370753,0.002115625778392551,0.004203029445474942
-0.004384848621370753,0.002115625778392244,0.003202168159165554
-0.004384218621370752,0.001778541521449096,0.003869409016704842
-0.004383588621370752,0.001778541521448942,0.003535788587935349
-0.004382958621370753,0.001441457264505946,0.003535788587935349
-0.004382328621370753,0.001778541521448942,0.004203029445474639
-0.004381698621370753,0.001778541521449096,0.004203029445474942
-0.004381068621370753,0.001778541521449555,0.003535788587935349
-0.004380438621370753,0.002789794292278542,0.003535788587935349
-0.004379808621370752,0.002789794292277623,0.00353578858793626
-0.004379178621370753,0.001778541521449249,0.004536649874244738
-0.004378548621370753,0.002115625778392244,0.004536649874244738
-0.004377918621370753,0.002115625778392244,0.005203890731784026
-0.004377288621370753,0.002452710035335087,0.005871131589323315
-0.004376658621370753,0.002789794292278542,0.005871131589323922
-0.004376028621370752,0.00245271003533478,0.005203890731782509
-0.004375398621370753,0.001778541521448942,0.003202168159165099
-0.004374768621370753,0.001441457264505946,0.002201306872856166
-0.004374138621370753,0.001104373007562951,0.00253492730162581
-0.004373508621370753,0.001104373007562797,0.003202168159164947
-0.004372878621370753,0.002115625778392244,0.004203029445474942
-0.004372248621370753,0.002115625778392244,0.00487027030301423
-0.004371618621370752,0.002452710035335393,0.004870270303014382
-0.004370988621370753,0.002452710035335393,0.004536649874244738
-0.004370358621370753,0.002452710035335393,0.004870270303014534
-0.004369728621370753,0.001778541521449402,0.004536649874244889
-0.004369098621370753,0.001778541521449249,0.004536649874244738
-0.004368468621370753,0.002115625778392244,0.004536649874244738
-0.004367838621370752,0.001441457264506253,0.005203890731784937
-0.004367208621370753,0.001778541521449096,0.005871131589323618
-0.004366578621370753,0.001778541521449096,0.005203890731784329
-0.004365948621370753,0.002115625778392091,0.004536649874245041
-0.004365318621370753,0.001778541521449402,0.005203890731783722
-0.004364688621370753,0.002115625778392244,0.005871131589323922
-0.004364058621370752,0.002115625778392857,0.005871131589324226
-0.004363428621370753,0.002789794292278236,0.006204752018093566
-0.004362798621370753,0.002115625778392244,0.005871131589323922
-0.004362168621370753,0.001441457264506253,0.005537511160554278
-0.004361538621370753,0.001441457264505946,0.005203890731784633
-0.004360908621370753,0.001441457264505946,0.004870270303014534
-0.004360278621370753,0.001778541521448942,0.004870270303014534
-0.004359648621370752,0.002115625778392244,0.005203890731784329
-0.004359018621370753,0.002115625778392244,0.005203890731784026
-0.004358388621370753,0.002115625778392244,0.004536649874244738
-0.004357758621370753,0.001778541521449249,0.005203890731784026
-0.004357128621370754,0.001778541521449096,0.004870270303014838
-0.004356498621370753,0.002115625778392244,0.004536649874244738
-0.004355868621370752,0.002452710035335087,0.004870270303014534
-0.004355238621370753,0.002115625778392091,0.004870270303014382
-0.004354608621370753,0.001778541521449096,0.004536649874244738
-0.004353978621370753,0.001778541521449096,0.004870270303014382
-0.004353348621370753,0.002115625778391938,0.004536649874245041
-0.004352718621370753,0.002452710035335393,0.004203029445474942
-0.004352088621370752,0.002452710035335393,0.004203029445475852
-0.004351458621370752,0.002452710035335393,0.005203890731784785
-0.004350828621370753,0.002452710035335393,0.006204752018093718
-0.004350198621370753,0.002115625778392398,0.006538372446863362
-0.004349568621370753,0.00144145726450656,0.005871131589324529
-0.004348938621370753,0.001104373007562491,0.002868547730395303
-0.004348308621370753,0.0004302044936764993,0.00186768644408637
-0.004347678621370752,0.001104373007563104,0.00186768644408728
-0.004347048621370753,0.0014414572645061,0.002868547730396061
-0.004346418621370753,0.001778541521449096,0.003535788587935349
-0.004345788621370753,0.002115625778392091,0.004203029445474639
-0.004345158621370753,0.002115625778392244,0.003869409016705449
-0.004344528621370753,0.001778541521449096,0.003869409016705146
-0.004343898621370752,0.001778541521449096,0.003869409016705146
-0.004343268621370753,0.001778541521448942,0.003869409016704994
-0.004342638621370753,0.001441457264505946,0.003535788587935349
-0.004342008621370753,0.001778541521448942,0.004203029445474639
-0.004341378621370753,0.002115625778391938,0.004536649874244434
-0.004340748621370753,0.002115625778392244,0.004536649874244738
-0.004340118621370753,0.001778541521449249,0.004536649874244738
-0.004339488621370752,0.001104373007563104,0.003869409016705146
-0.004338858621370753,0.001778541521449096,0.003869409016705146
-0.004338228621370753,0.001778541521449096,0.003202168159165554
-0.004337598621370753,0.001778541521449096,0.004203029445474487
-0.004336968621370753,0.00245271003533524,0.00420302944547479
-0.004336338621370753,0.002115625778392244,0.003869409016705146
-0.004335708621370752,0.002115625778391324,0.003535788587935956
-0.004335078621370753,0.001104373007563104,0.004203029445474942
-0.004334448621370753,0.001778541521449096,0.004203029445474942
-0.004333818621370753,0.002115625778392091,0.004203029445474942
-0.004333188621370753,0.002115625778392244,0.004203029445474942
-0.004332558621370753,0.002115625778392244,0.004203029445474942
-0.004331928621370752,0.002115625778392857,0.003869409016705449
-0.004331298621370753,0.002789794292278236,0.00420302944547479
-0.004330668621370753,0.002115625778392244,0.003869409016705146
-0.004330038621370753,0.001778541521449249,0.003535788587935501
-0.004329408621370753,0.002115625778391938,0.003869409016704842
-0.004328778621370753,0.002452710035335393,0.004870270303014534
-0.004328148621370753,0.001441457264506406,0.004870270303014534
-0.004327518621370752,0.001441457264506253,0.00487027030301423
-0.004326888621370753,0.001778541521449249,0.004536649874244738
-0.004326258621370753,0.002115625778392244,0.004536649874244738
-0.004325628621370753,0.002115625778392244,0.005203890731784026
-0.004324998621370753,0.002115625778392244,0.005871131589323315
-0.004324368621370753,0.001778541521449096,0.006538372446863514
-0.004323738621370752,0.002452710035335393,0.00653837244686321
-0.004323108621370753,0.00245271003533524,0.006204752018092504
-0.004322478621370753,0.002115625778392244,0.003535788587935349
-0.004321848621370753,0.001778541521449249,0.002534927301626417
-0.004321218621370753,0.001778541521449096,0.002868547730395454
-0.004320588621370753,0.002115625778392244,0.003869409016705146
-0.004319958621370753,0.001778541521449249,0.00420302944547479
-0.004319328621370752,0.001778541521448942,0.004536649874244738
-0.004318698621370753,0.001441457264505946,0.004536649874244738
-0.004318068621370753,0.001778541521448942,0.004870270303014382
-0.004317438621370753,0.001441457264506253,0.005203890731784026
-0.004316808621370753,0.001104373007562951,0.004536649874244738
-0.004316178621370753,0.001441457264505946,0.004536649874244738
-0.004315548621370752,0.001778541521449096,0.004536649874245345
-0.004314918621370753,0.001778541521449249,0.005203890731784633
-0.004314288621370753,0.002115625778392244,0.005871131589323922
-0.004313658621370753,0.00245271003533524,0.005537511160554278
-0.004313028621370753,0.001778541521449709,0.004536649874245648
-0.004312398621370753,0.001778541521449096,0.004536649874244738
-0.004311768621370752,0.001778541521449096,0.004870270303014534
-0.004311138621370753,0.001778541521449096,0.004870270303014534
-0.004310508621370753,0.001778541521449096,0.004870270303014534
-0.004309878621370753,0.0014414572645061,0.005203890731784178
-0.004309248621370753,0.002115625778391631,0.004536649874245345
-0.004308618621370753,0.001104373007562797,0.003869409016705146
-0.004307988621370753,0.001441457264505793,0.00420302944547479
-0.004307358621370752,0.001441457264505946,0.004536649874244586
-0.004306728621370753,0.001441457264505946,0.004203029445474942
-0.004306098621370753,0.001441457264505946,0.004203029445474942
-0.004305468621370753,0.001441457264505946,0.004203029445474942
-0.004304838621370753,0.001778541521448942,0.004203029445475246
-0.004304208621370753,0.001441457264505946,0.004870270303014534
-0.004303578621370752,0.001441457264506253,0.004203029445475549
-0.004302948621370753,0.001778541521449249,0.004870270303014686
-0.004302318621370753,0.002115625778392244,0.005203890731784329
-0.004301688621370753,0.002115625778392244,0.005537511160553974
-0.004301058621370753,0.002115625778392244,0.005203890731784633
-0.004300428621370753,0.002452710035335393,0.005871131589323922
-0.004299798621370752,0.002115625778392244,0.006204752018093718
-0.004299168621370753,0.002115625778392244,0.006204752018093718
-0.004298538621370753,0.002115625778392244,0.006204752018093718
-0.004297908621370753,0.002115625778392244,0.002868547730397275
-0.004297278621370753,0.001778541521449402,0.001534066015317787
-0.004296648621370753,0.002115625778392244,0.00186768644408637
-0.004296018621370753,0.001441457264506253,0.002868547730395302
-0.004295388621370752,0.001441457264505946,0.00353578858793626
-0.004294758621370753,0.001441457264505793,0.004536649874244434
-0.004294128621370753,0.001104373007562797,0.003869409016705146
-0.004293498621370753,0.001441457264505793,0.003869409016705146
-0.004292868621370753,0.001104373007563104,0.003869409016705146
-0.004292238621370753,0.001778541521449096,0.003535788587935349
-0.004291608621370752,0.001778541521448789,0.003535788587935653
-0.004290978621370753,0.0014414572645061,0.003869409016705298
-0.004290348621370753,0.001778541521449096,0.004203029445474942
-0.004289718621370753,0.0014414572645061,0.004536649874244586
-0.004289088621370753,0.001441457264505946,0.004203029445475246
-0.004288458621370753,0.001104373007562797,0.003869409016705146
-0.004287828621370753,0.001441457264505793,0.003869409016705146
-0.004287198621370752,0.001104373007563104,0.003869409016705146
-0.004286568621370753,0.001778541521449096,0.003869409016705146
-0.004285938621370753,0.002115625778392091,0.00420302944547479
-0.004285308621370753,0.001778541521449402,0.003869409016705449
-0.004284678621370753,0.001441457264505793,0.003202168159165705
-0.004284048621370753,0.001104373007562797,0.003535788587935349
-0.004283418621370752,0.001441457264506253,0.003869409016705146
-0.004282788621370753,0.001778541521449096,0.003869409016705298
-0.004282158621370753,0.001778541521449096,0.004203029445474942
-0.004281528621370753,0.001778541521449096,0.004203029445474942
-0.004280898621370753,0.00110437300756341,0.003869409016705449
-0.004280268621370753,0.002115625778392244,0.004536649874244738
-0.004279638621370752,0.001778541521449096,0.004870270303013927
-0.004279008621370753,0.001778541521449096,0.004203029445474942
-0.004278378621370753,0.001778541521449096,0.004203029445474942
-0.004277748621370753,0.001778541521449096,0.004203029445474942
-0.004277118621370753,0.001778541521449096,0.004536649874244434
-0.004276488621370753,0.001441457264505946,0.004870270303014534
-0.004275858621370753,0.001441457264505946,0.004536649874244889
-0.004275228621370752,0.001778541521449096,0.004203029445475094
-0.004274598621370753,0.001778541521449249,0.004536649874245345
-0.004273968621370753,0.002115625778392244,0.005871131589323922
-0.004273338621370753,0.002115625778392244,0.006204752018093566
-0.004272708621370753,0.002115625778392244,0.006871992875633006
-0.004272078621370753,0.002115625778392244,0.006204752018093718
-0.004271448621370752,0.002115625778391938,0.004203029445473729
-0.004270818621370753,0.001778541521449249,0.002868547730395758
-0.004270188621370753,0.002115625778392244,0.002868547730395758
-0.004269558621370753,0.001778541521449249,0.003535788587935046
-0.004268928621370753,0.002115625778391938,0.004536649874243827
-0.004268298621370753,0.001778541521449096,0.005203890731784329
-0.004267668621370752,0.00144145726450564,0.005203890731783722
-0.004267038621370753,0.001104373007562951,0.004536649874244889
-0.004266408621370753,0.001441457264505946,0.004870270303014534
-0.004265778621370753,0.001778541521448942,0.005203890731784178
-0.004265148621370753,0.001441457264506253,0.004870270303014838
-0.004264518621370753,0.001104373007562797,0.004536649874244738
-0.004263888621370753,0.001441457264505946,0.004870270303014534
-0.004263258621370752,0.001778541521449402,0.005537511160553822
-0.004262628621370753,0.002115625778392091,0.005203890731783874
-0.004261998621370753,0.001778541521449096,0.004203029445474942
-0.004261368621370753,0.001778541521449096,0.00487027030301423
-0.004260738621370753,0.001778541521449096,0.004203029445475549
-0.004260108621370753,0.001778541521449096,0.003869409016705146
-0.004259478621370752,0.001778541521448789,0.003869409016705449
-0.004258848621370753,0.001441457264505946,0.004203029445474942
-0.004258218621370753,0.001441457264505946,0.004203029445474942
-0.004257588621370753,0.001778541521448942,0.004536649874244586
-0.004256958621370753,0.001778541521449096,0.004203029445475246
-0.004256328621370753,0.001778541521449096,0.004203029445474942
-0.004255698621370753,0.002115625778392091,0.004203029445474942
-0.004255068621370752,0.002115625778392091,0.004536649874244434
-0.004254438621370753,0.001778541521449096,0.003869409016705146
-0.004253808621370753,0.0014414572645061,0.00420302944547479
-0.004253178621370753,0.001441457264505946,0.004536649874244586
-0.004252548621370753,0.001778541521449249,0.004536649874244586
-0.004251918621370753,0.002115625778392244,0.004203029445474942
-0.004251288621370752,0.002115625778391938,0.004536649874244434
-0.004250658621370753,0.001778541521448942,0.004203029445475094
-0.004250028621370753,0.001441457264505946,0.004536649874244738
-0.004249398621370753,0.001778541521448942,0.005203890731784026
-0.004248768621370753,0.001778541521449096,0.005537511160553822
-0.004248138621370753,0.001778541521449096,0.005537511160554126
-0.004247508621370752,0.00144145726450564,0.005203890731781902
-0.004246878621370753,0.001104373007562797,0.002534927301625507
-0.004246248621370753,0.001104373007562797,0.001534066015316574
-0.004245618621370753,0.001104373007562797,0.001534066015316574
-0.004244988621370753,0.001104373007562797,0.002868547730394544
-0.004244358621370753,0.001104373007562797,0.003535788587935349
-0.004243728621370753,0.001778541521448789,0.003535788587935349
-0.004243098621370752,0.001441457264505946,0.002868547730395909
-0.004242468621370753,0.0014414572645061,0.003202168159165705
-0.004241838621370753,0.001778541521449096,0.003535788587935349
-0.004241208621370753,0.001778541521449096,0.003535788587935349
-0.004240578621370753,0.001441457264505946,0.003202168159165705
-0.004239948621370753,0.001441457264505946,0.003535788587935349
