C=0.15nF, R=+∞, Circuits du deuxième ordre.csv

#Digilent WaveForms Oscilloscope Acquisition
#Device Name: Discovery2
#Serial Number: SN:210321AD5905
#Date Time: 2022-07-04 14:07:29.837
#Sample rate: 1.5873e+06Hz
#Samples: 8192
#Trigger: Source: Channel 1 Type: Edge Condition: Rising Level: 0 V Hyst.: Auto HoldOff: 100 ns
#Channel 1: Range: 500 mV/div Offset: 0 V Attenuation: 1 X Sample Mode: Average
#Channel 2: Range: 500 mV/div Offset: 0 V Attenuation: 1 X Sample Mode: Average
#Wavegen Channel 1: Running
#Mode: Custom
#Type: 3.0.csv
#Frequency: 250 Hz
#Period: 4 ms
#Amplitude: 2 V
#Offset: 0 V
#Phase: 0 бу

Time (s),Channel 1 (V),Channel 2 (V)
-0.004680546535916824,0.003126878549221385,0.01454526273733801
-0.004679916535916824,0.002789794292278389,0.01387802187979888
-0.004679286535916824,0.002452710035335393,0.01354440145102923
-0.004678656535916825,0.002452710035335393,0.01321078102225958
-0.004678026535916825,0.002789794292278236,0.01287716059348994
-0.004677396535916824,0.002789794292278542,0.01321078102225943
-0.004676766535916825,0.002789794292278542,0.01387802187979872
-0.004676136535916824,0.00245271003533524,0.01387802187979888
-0.004675506535916824,0.002115625778392244,0.01354440145102923
-0.004674876535916824,0.002115625778392244,0.01321078102225958
-0.004674246535916825,0.002115625778392244,0.01254354016472045
-0.004673616535916824,0.001778541521449402,0.01254354016472045
-0.004672986535916824,0.002452710035335393,0.01387802187979903
-0.004672356535916824,0.001778541521449709,0.01354440145102953
-0.004671726535916824,0.002452710035335853,0.01387802187979963
-0.004671096535916824,0.003463962806164841,0.01521250359487821
-0.004670466535916825,0.004138131320050831,0.01688060573872643
-0.004669836535916825,0.004812299833936823,0.01921594874011364
-0.004669206535916824,0.006160636861710033,0.02088405088396474
-0.004668576535916824,0.00481229983393621,0.01788146702503385
-0.004667946535916824,0.003463962806163768,0.0148788831661069
-0.004667316535916824,0.001104373007562797,0.01154267887841045
-0.004666686535916825,-0.0002439640202091856,0.0088737154482533
-0.004666056535916825,-0.0009181325340954835,0.006204752018096145
-0.004665426535916824,-0.0009181325340960967,0.006204752018093718
-0.004664796535916825,-0.0005810482771531011,0.006871992875633006
-0.004664166535916824,9.312023673381016e-05,0.008540095019483048
-0.004663536535916824,0.00110437300756341,0.01020819716333233
-0.004662906535916824,0.002452710035335393,0.01254354016471984
-0.004662276535916825,0.003463962806164381,0.01387802187979842
-0.004661646535916824,0.004138131320051138,0.01521250359487806
-0.004661016535916824,0.004138131320051138,0.01487888316610841
-0.004660386535916824,0.004138131320050832,0.0158797444524175
-0.004659756535916824,0.003801047063107836,0.01554612402364755
-0.004659126535916824,0.003463962806164841,0.01454526273733862
-0.004658496535916825,0.002789794292278849,0.01387802187979933
-0.004657866535916825,0.003126878549221385,0.0148788831661075
-0.004657236535916824,0.002789794292278542,0.01421164230856882
-0.004656606535916824,0.002789794292278542,0.01454526273733831
-0.004655976535916824,0.002789794292278696,0.01421164230856852
-0.004655346535916824,0.003126878549221692,0.01354440145102923
-0.004654716535916825,0.002789794292278696,0.01387802187979888
-0.004654086535916825,0.003463962806164228,0.0148788831661075
-0.004653456535916824,0.003126878549221692,0.01487888316610841
-0.004652826535916824,0.003801047063107989,0.01521250359487821
-0.004652196535916824,0.004138131320050525,0.01554612402364801
-0.004651566535916824,0.003463962806164994,0.01554612402364816
-0.004650936535916824,0.003801047063107989,0.0158797444524178
-0.004650306535916825,0.003463962806164994,0.01521250359487851
-0.004649676535916825,0.003126878549221998,0.01454526273733922
-0.004649046535916824,0.003126878549221692,0.01421164230856882
-0.004648416535916824,0.003463962806165454,0.01487888316610902
-0.004647786535916824,0.004138131320050985,0.01554612402364801
-0.004647156535916824,0.003801047063107989,0.01554612402364801
-0.004646526535916825,0.003463962806164994,0.01521250359487836
-0.004645896535916825,0.002789794292279156,0.01487888316610872
-0.004645266535916824,0.003126878549221692,0.01554612402364801
-0.004644636535916825,0.003126878549221692,0.01521250359487836
-0.004644006535916824,0.002452710035335393,0.01454526273733862
-0.004643376535916824,0.002452710035335393,0.01454526273733862
-0.004642746535916824,0.004138131320050371,0.01788146702503506
-0.004642116535916825,0.005486468347823121,0.01988318959765445
-0.004641486535916824,0.006160636861710186,0.02121767131273499
-0.004640856535916824,0.006497721118653182,0.02221853259904392
-0.004640226535916824,0.004812299833935904,0.01954956916888252
-0.004639596535916824,0.003126878549220925,0.01621336488118593
-0.004638966535916824,0.001441457264505946,0.01254354016471984
-0.004638336535916825,-0.0002439640202090323,0.009207335877023399
-0.004637706535916825,-0.0005810482771526411,0.007872854161943912
-0.004637076535916824,-0.0009181325340960967,0.007205613304403106
-0.004636446535916824,-0.0009181325340954835,0.007539233733173812
-0.004635816535916824,-0.0002439640202090323,0.008540095019483352
-0.004635186535916824,0.001441457264505946,0.01087543802087086
-0.004634556535916825,0.002452710035334933,0.01220991973594944
-0.004633926535916825,0.002789794292278236,0.01354440145102801
-0.004633296535916824,0.003126878549221692,0.01454526273733862
-0.004632666535916825,0.003801047063107683,0.01521250359487791
-0.004632036535916824,0.004475215576993982,0.0158797444524178
-0.004631406535916824,0.00380104706310753,0.0158797444524172
-0.004630776535916824,0.002789794292278542,0.01454526273733862
-0.004630146535916825,0.002789794292278542,0.01421164230856897
-0.004629516535916824,0.002452710035335087,0.01387802187979842
-0.004628886535916824,0.001778541521449096,0.01254354016471984
-0.004628256535916824,0.002115625778392551,0.01220991973595065
-0.004627626535916824,0.002452710035335546,0.01287716059348949
-0.004626996535916824,0.002789794292278542,0.01254354016471984
-0.004626366535916825,0.003126878549221539,0.01321078102225913
-0.004625736535916825,0.002452710035336007,0.01321078102225943
-0.004625106535916824,0.002115625778392244,0.01254354016471984
-0.004624476535916824,0.002115625778392551,0.01354440145102984
-0.004623846535916824,0.002452710035335546,0.01421164230856867
-0.004623216535916824,0.002789794292278542,0.01387802187979903
-0.004622586535916825,0.002789794292278542,0.01321078102225974
-0.004621956535916825,0.0024527100353357,0.01287716059348994
-0.004621326535916824,0.002789794292278542,0.01287716059348964
-0.004620696535916824,0.002115625778392244,0.01354440145102923
-0.004620066535916824,0.002115625778391938,0.01321078102225883
-0.004619436535916824,0.001778541521449249,0.0125435401647203
-0.004618806535916824,0.002115625778392244,0.01354440145102923
-0.004618176535916825,0.00245271003533524,0.01387802187979888
-0.004617546535916825,0.003126878549221078,0.01421164230856852
-0.004616916535916824,0.003463962806164841,0.01454526273733862
-0.004616286535916824,0.004138131320051751,0.01621336488118942
-0.004615656535916824,0.00481229983393805,0.01821508745380728
-0.004615026535916824,0.006160636861710033,0.02021681002642515
-0.004614396535916825,0.006497721118653028,0.02088405088396444
-0.004613766535916825,0.004812299833938969,0.01754784659626982
-0.004613136535916824,0.003126878549221692,0.01521250359487821
-0.004612506535916825,0.001778541521449709,0.01220991973595141
-0.004611876535916824,9.312023673289043e-05,0.008873715448251327
-0.004611246535916824,-0.0009181325340960967,0.007205613304403106
-0.004610616535916824,-0.001592301047982088,0.006538372446863817
-0.004609986535916825,-0.0009181325340964033,0.007539233733172447
-0.004609356535916824,0.0004302044936771125,0.009874576734562535
-0.004608726535916824,0.001778541521449096,0.01220991973595005
-0.004608096535916824,0.003463962806165454,0.01387802187980024
-0.004607466535916824,0.004138131320051292,0.01521250359487851
-0.004606836535916824,0.004475215576994288,0.0158797444524178
-0.004606206535916825,0.003801047063108296,0.01621336488118745
-0.004605576535916825,0.004475215576993674,0.0162133648811876
-0.004604946535916824,0.004138131320051138,0.0158797444524178
-0.004604316535916824,0.003801047063107683,0.01454526273733922
-0.004603686535916824,0.003463962806164688,0.01521250359487821
-0.004603056535916824,0.003126878549221692,0.01521250359487821
-0.004602426535916825,0.0024527100353357,0.01454526273733892
-0.004601796535916825,0.002789794292278236,0.01454526273733862
-0.004601166535916824,0.003126878549221692,0.01421164230856882
-0.004600536535916824,0.003463962806164687,0.01487888316610811
-0.004599906535916824,0.003463962806164688,0.01487888316610826
-0.004599276535916824,0.003126878549221692,0.01454526273733877
-0.004598646535916824,0.003126878549221692,0.01487888316610841
-0.004598016535916825,0.003801047063107683,0.01587974445241735
-0.004597386535916824,0.003801047063107836,0.01587974445241765
-0.004596756535916824,0.003463962806164841,0.01554612402364801
-0.004596126535916824,0.003801047063107376,0.0155461240236477
-0.004595496535916824,0.003126878549221385,0.01521250359487791
-0.004594866535916824,0.002452710035335393,0.01454526273733862
-0.004594236535916825,0.002789794292278389,0.01487888316610826
-0.004593606535916825,0.002789794292278542,0.01487888316610841
-0.004592976535916824,0.002789794292278542,0.01387802187979903
-0.004592346535916824,0.003126878549221385,0.01421164230856913
-0.004591716535916824,0.002789794292278542,0.01454526273733862
-0.004591086535916824,0.002789794292278542,0.01454526273733862
-0.004590456535916825,0.003126878549221539,0.01554612402364755
-0.004589826535916825,0.003801047063107376,0.01688060573872598
-0.004589196535916824,0.004812299833937436,0.01888232831134597
-0.004588566535916824,0.006160636861710033,0.02021681002642515
-0.004587936535916824,0.006497721118652262,0.02121767131273211
-0.004587306535916824,0.005486468347822968,0.0185487078825748
-0.004586676535916824,0.003801047063107989,0.01554612402364801
-0.004586046535916825,0.001441457264507019,0.01154267887841227
-0.004585416535916825,-0.000243964020208266,0.008540095019485021
-0.004584786535916824,-0.001255216791039246,0.005537511160554126
-0.004584156535916824,-0.001929385304924624,0.004870270303016051
-0.004583526535916824,-0.0009181325340954835,0.006538372446864727
-0.004582896535916824,0.0004302044936764993,0.009207335877021881
-0.004582266535916825,0.001778541521448482,0.01154267887840939
-0.004581636535916825,0.00245271003533478,0.01287716059348842
-0.004581006535916824,0.003126878549221692,0.01354440145102923
-0.004580376535916825,0.003126878549221692,0.01354440145102923
-0.004579746535916824,0.003126878549222151,0.01421164230856958
-0.004579116535916824,0.004138131320051138,0.0158797444524178
-0.004578486535916824,0.003801047063108143,0.01521250359487851
-0.004577856535916825,0.002789794292279002,0.01421164230856928
-0.004577226535916824,0.002452710035335393,0.01354440145102908
-0.004576596535916824,0.002452710035335393,0.01321078102225943
-0.004575966535916824,0.002115625778392551,0.01287716059348964
-0.004575336535916824,0.00245271003533524,0.01287716059348903
-0.004574706535916824,0.002115625778392244,0.01154267887841045
-0.004574076535916825,0.00245271003533524,0.01154267887841045
-0.004573446535916825,0.003126878549221078,0.01287716059348842
-0.004572816535916824,0.002789794292278542,0.01354440145102923
-0.004572186535916824,0.002452710035336007,0.01287716059349055
-0.004571556535916824,0.003126878549221692,0.01387802187979888
-0.004570926535916824,0.003126878549221692,0.01354440145102923
-0.004570296535916825,0.003126878549221692,0.01321078102225958
-0.004569666535916825,0.002789794292278849,0.01287716059348994
-0.004569036535916824,0.002452710035335393,0.01287716059348964
-0.004568406535916824,0.002789794292278389,0.01354440145102893
-0.004567776535916824,0.003801047063108296,0.01454526273733862
-0.004567146535916824,0.004138131320050832,0.01454526273733862
-0.004566516535916824,0.003463962806164841,0.01454526273733862
-0.004565886535916825,0.003801047063107836,0.01454526273733862
-0.004565256535916824,0.003801047063107836,0.01454526273733847
-0.004564626535916824,0.003463962806164841,0.01421164230856882
-0.004563996535916824,0.003126878549222611,0.01487888316610993
-0.004563366535916824,0.004138131320051598,0.0165469853099583
-0.004562736535916824,0.005149384090880586,0.01854870788257617
-0.004562106535916825,0.006497721118652568,0.02055043045519404
-0.004561476535916825,0.006834805375596025,0.02155129174150342
-0.004560846535916824,0.004812299833937436,0.01921594874011576
-0.004560216535916824,0.003463962806162695,0.01587974445241446
-0.004559586535916824,0.001104373007562337,0.01220991973594929
-0.004558956535916824,9.312023673335029e-05,0.01054181759210107
-0.004558326535916825,-0.0005810482771526411,0.008873715448252844
-0.004557696535916825,-0.0005810482771529478,0.008540095019482594
-0.004557066535916824,0.0004302044936764993,0.009540956305791678
-0.004556436535916824,0.001104373007562797,0.01120905844964066
-0.004555806535916824,0.002452710035336007,0.01254354016472136
-0.004555176535916824,0.003126878549221692,0.01421164230856882
-0.004554546535916824,0.003126878549221692,0.01421164230856882
-0.004553916535916825,0.003463962806164687,0.01487888316610811
-0.004553286535916825,0.004138131320050525,0.01654698530995588
-0.004552656535916824,0.004475215576994288,0.01721422616749698
-0.004552026535916824,0.004475215576993982,0.0162133648811873
-0.004551396535916824,0.004138131320050985,0.0158797444524175
-0.004550766535916824,0.003801047063107989,0.01521250359487821
-0.004550136535916825,0.003463962806164994,0.01487888316610857
-0.004549506535916825,0.002789794292279156,0.01387802187979994
-0.004548876535916824,0.002452710035335393,0.01387802187979903
-0.004548246535916825,0.002115625778392398,0.01387802187979903
-0.004547616535916824,0.002789794292278696,0.01387802187979918
-0.004546986535916824,0.003126878549221692,0.01421164230856882
-0.004546356535916824,0.003126878549221692,0.01421164230856882
-0.004545726535916825,0.003126878549221692,0.01387802187979918
-0.004545096535916824,0.002789794292278389,0.01487888316610811
-0.004544466535916824,0.002452710035335393,0.01421164230856882
-0.004543836535916824,0.002789794292279156,0.01387802187979963
-0.004543206535916824,0.003463962806164534,0.01454526273733862
-0.004542576535916824,0.002789794292278542,0.01454526273733862
-0.004541946535916825,0.002452710035335546,0.01354440145102968
-0.004541316535916825,0.002789794292278236,0.01354440145102923
-0.004540686535916824,0.002789794292278542,0.01354440145102923
-0.004540056535916824,0.0024527100353357,0.01321078102225883
-0.004539426535916824,0.002789794292278236,0.01254354016471999
-0.004538796535916824,0.002115625778392244,0.01287716059348964
-0.004538166535916825,0.002115625778392244,0.01321078102225928
-0.004537536535916825,0.002452710035335087,0.01354440145102893
-0.004536906535916824,0.002789794292278542,0.01387802187979903
-0.004536276535916824,0.002452710035335546,0.01287716059349009
-0.004535646535916824,0.002452710035336007,0.01321078102226156
-0.004535016535916824,0.003126878549222458,0.01554612402364937
-0.004534386535916824,0.004812299833937436,0.01854870788257617
-0.004533756535916825,0.005823552604766424,0.01988318959765475
-0.004533126535916824,0.00616063686170942,0.01988318959765399
-0.004532496535916824,0.004812299833937436,0.01688060573872719
-0.004531866535916824,0.002789794292277009,0.01387802187979599
-0.004531236535916824,0.001104373007562184,0.01054181759209985
-0.004530606535916824,-0.0002439640202097987,0.007872854161942697
-0.004529976535916825,-0.0009181325340957901,0.006538372446864121
-0.004529346535916825,-0.0009181325340960967,0.006204752018094021
-0.004528716535916824,9.312023673335029e-05,0.007539233733172902
-0.004528086535916824,0.0007672887506208747,0.009540956305793196
-0.004527456535916824,0.002115625778392704,0.01120905844964111
-0.004526826535916824,0.003126878549221692,0.01220991973595005
-0.004526196535916824,0.003463962806164687,0.01354440145102862
-0.004525566535916825,0.003801047063107683,0.01421164230856821
-0.004524936535916824,0.00380104706310753,0.01421164230856913
-0.004524306535916824,0.002789794292278542,0.01487888316610841
-0.004523676535916824,0.002789794292278849,0.01487888316610811
-0.004523046535916824,0.003126878549221692,0.01454526273733831
-0.004522416535916824,0.003126878549221692,0.01387802187979903
-0.004521786535916825,0.0024527100353357,0.0122099197359508
-0.004521156535916825,0.002452710035335393,0.01220991973595005
-0.004520526535916824,0.002452710035335393,0.01220991973595005
-0.004519896535916824,0.002789794292278236,0.01287716059348994
-0.004519266535916824,0.0024527100353357,0.01321078102225958
-0.004518636535916824,0.003126878549221692,0.01354440145102923
-0.004518006535916825,0.003126878549221692,0.01387802187979888
-0.004517376535916825,0.003463962806164534,0.01387802187979903
-0.004516746535916824,0.003463962806164841,0.01454526273733862
-0.004516116535916825,0.003463962806164841,0.01421164230856897
-0.004515486535916824,0.003801047063107836,0.01454526273733862
-0.004514856535916824,0.003463962806164841,0.01454526273733862
-0.004514226535916824,0.003126878549221692,0.01387802187979903
-0.004513596535916825,0.003126878549221692,0.01421164230856867
-0.004512966535916824,0.003801047063107836,0.01454526273733877
-0.004512336535916824,0.003463962806164841,0.01487888316610841
-0.004511706535916824,0.003126878549221998,0.01454526273733862
-0.004511076535916824,0.003463962806164688,0.01454526273733862
-0.004510446535916824,0.003126878549221692,0.01454526273733862
-0.004509816535916825,0.003126878549221692,0.01387802187979933
-0.004509186535916825,0.002789794292278849,0.01387802187979903
-0.004508556535916824,0.003126878549221692,0.01487888316610841
-0.004507926535916824,0.003126878549221998,0.01521250359487821
-0.004507296535916824,0.0034639628061653,0.01521250359487897
-0.004506666535916824,0.004475215576994288,0.01688060573872719
-0.004506036535916825,0.005486468347823275,0.0192159487401147
-0.004505406535916825,0.007171889632537947,0.02088405088396323
-0.004504776535916824,0.00717188963253948,0.02088405088396474
-0.004504146535916824,0.005486468347824501,0.01854870788257723
-0.004503516535916824,0.003126878549220159,0.01521250359487487
-0.004502886535916824,0.001441457264505333,0.01154267887840894
-0.004502256535916824,9.312023673335029e-05,0.008206474590712495
-0.004501626535916825,-0.0002439640202096454,0.007205613304403561
-0.004500996535916825,-0.0002439640202097987,0.006871992875633613
-0.004500366535916824,-0.0002439640202097987,0.007872854161942697
-0.004499736535916824,0.0004302044936771125,0.008873715448254209
-0.004499106535916824,0.00110437300756341,0.01120905844964172
-0.004498476535916824,0.002452710035335393,0.01354440145102923
-0.004497846535916825,0.003463962806164381,0.01454526273733816
-0.004497216535916825,0.003463962806164841,0.01487888316610811
-0.004496586535916824,0.003801047063107989,0.01554612402364801
-0.004495956535916824,0.003801047063107683,0.01587974445241689
-0.004495326535916824,0.003463962806164381,0.0148788831661075
-0.004494696535916824,0.002452710035335393,0.01287716059348964
-0.004494066535916824,0.002452710035335393,0.01287716059348964
-0.004493436535916825,0.002452710035335393,0.01321078102225913
-0.004492806535916824,0.002452710035335393,0.01321078102225928
-0.004492176535916824,0.002452710035335393,0.01287716059348964
-0.004491546535916824,0.002115625778391938,0.01220991973594944
-0.004490916535916824,0.001778541521449402,0.01154267887841076
-0.004490286535916824,0.002452710035335393,0.01220991973595005
-0.004489656535916825,0.002452710035335393,0.01254354016471969
-0.004489026535916825,0.002452710035335393,0.01321078102225883
-0.004488396535916824,0.002115625778392244,0.01287716059348964
-0.004487766535916824,0.002115625778392551,0.01321078102225913
