C=1nF, R=+∞, Circuits du premier ordre.csv

#Digilent WaveForms Oscilloscope Acquisition
#Device Name: Discovery2
#Serial Number: SN:210321AD5905
#Date Time: 2022-07-04 14:05:00.690
#Sample rate: 1.5873e+06Hz
#Samples: 8192
#Trigger: Source: Channel 1 Type: Edge Condition: Rising Level: 0 V Hyst.: Auto HoldOff: 100 ns
#Channel 1: Range: 500 mV/div Offset: 0 V Attenuation: 1 X Sample Mode: Average
#Channel 2: Range: 500 mV/div Offset: 0 V Attenuation: 1 X Sample Mode: Average
#Wavegen Channel 1: Running
#Mode: Custom
#Type: 3.0.csv
#Frequency: 250 Hz
#Period: 4 ms
#Amplitude: 2 V
#Offset: 0 V
#Phase: 0 бу

Time (s),Channel 1 (V),Channel 2 (V)
-0.004680237369250158,0.001778541521449096,0.07826676463236966
-0.004679607369250158,0.001778541521449096,0.0786003850611393
-0.004678977369250157,0.002452710035336007,0.07860038506113975
-0.004678347369250158,0.003126878549221692,0.07893400548990925
-0.004677717369250158,0.003126878549221692,0.07893400548990925
-0.004677087369250158,0.003463962806164687,0.07893400548990925
-0.004676457369250158,0.002789794292279156,0.07860038506113975
-0.004675827369250158,0.002115625778392244,0.07793314420359986
-0.004675197369250157,0.001778541521448176,0.07793314420359955
-0.004674567369250157,0.000767288750619495,0.07759952377482976
-0.004673937369250158,0.0004302044936764993,0.07693228291729047
-0.004673307369250158,-0.0002439640202094921,0.07593142163098154
-0.004672677369250158,-0.0002439640202097987,0.07626504205975057
-0.004672047369250158,0.0004302044936764993,0.07693228291729047
-0.004671417369250157,0.0007672887506205681,0.07693228291729047
-0.004670787369250157,0.001778541521448942,0.07693228291729047
-0.004670157369250158,0.001441457264505946,0.07693228291729047
-0.004669527369250158,0.001778541521448942,0.0779331442035994
-0.004668897369250158,0.002115625778391938,0.07759952377483037
-0.004668267369250158,0.001441457264506253,0.07793314420359986
-0.004667637369250158,0.002115625778392244,0.07793314420359986
-0.004667007369250157,0.002115625778392244,0.07726590334606027
-0.004666377369250158,0.002115625778391938,0.07726590334605997
-0.004665747369250158,0.001441457264505946,0.07659866248852068
-0.004665117369250158,0.001104373007562951,0.07726590334605997
-0.004664487369250158,0.00144145726450564,0.07693228291729078
-0.004663857369250158,0.002452710035335393,0.07693228291729047
-0.004663227369250157,0.002452710035335393,0.07693228291729078
-0.004662597369250157,0.002452710035335393,0.07726590334606043
-0.004661967369250158,0.002452710035335393,0.07759952377483006
-0.004661337369250158,0.002789794292278389,0.07826676463236935
-0.004660707369250158,0.002789794292278542,0.07793314420360016
-0.004660077369250158,0.002115625778392244,0.07693228291729047
-0.004659447369250158,0.0007672887506202616,0.07593142163098154
-0.004658817369250157,0.0007672887506196483,0.07559780120221145
-0.004658187369250158,0.0007672887506196483,0.07593142163098109
-0.004657557369250158,0.0004302044936764993,0.07626504205975088
-0.004656927369250158,0.000767288750619495,0.07659866248852053
-0.004656297369250158,0.001104373007562797,0.07626504205975118
-0.004655667369250158,0.001104373007562797,0.07693228291729047
-0.004655037369250157,0.001778541521449096,0.07626504205975118
-0.004654407369250158,0.001778541521449096,0.07659866248852068
-0.004653777369250158,0.001778541521449096,0.07659866248852068
-0.004653147369250158,0.002115625778392091,0.07626504205975103
-0.004652517369250158,0.002115625778392244,0.07593142163098139
-0.004651887369250158,0.002115625778392244,0.07659866248852068
-0.004651257369250157,0.002115625778391938,0.07693228291729047
-0.004650627369250157,0.001778541521448942,0.07693228291729032
-0.004649997369250158,0.001441457264505946,0.07659866248852068
-0.004649367369250158,0.001778541521448942,0.07693228291729032
-0.004648737369250158,0.001778541521449096,0.07626504205975149
-0.004648107369250158,0.001778541521449096,0.07693228291729047
-0.004647477369250158,0.002452710035335087,0.07659866248852083
-0.004646847369250157,0.002452710035336007,0.07693228291729017
-0.004646217369250158,0.003126878549221692,0.07659866248852068
-0.004645587369250158,0.003126878549221692,0.07659866248852068
-0.004644957369250158,0.002115625778392704,0.07626504205975103
-0.004644327369250158,0.001104373007563717,0.07593142163098139
-0.004643697369250158,0.001104373007562797,0.0755978012022113
-0.004643067369250157,9.312023673335029e-05,0.0749305603446714
-0.004642437369250157,9.312023673350358e-05,0.0745969399159022
-0.004641807369250158,0.0004302044936764993,0.07526418077344149
-0.004641177369250158,0.0004302044936764993,0.07526418077344149
-0.004640547369250158,0.0007672887506193417,0.07559780120221099
-0.004639917369250158,0.001778541521449096,0.0755978012022113
-0.004639287369250158,0.001778541521449096,0.0755978012022113
-0.004638657369250157,0.001778541521448942,0.07559780120221145
-0.004638027369250158,0.001441457264505946,0.07593142163098109
-0.004637397369250158,0.001778541521448942,0.07559780120221145
-0.004636767369250158,0.001778541521449096,0.0752641807734418
-0.004636137369250158,0.001778541521448942,0.07526418077344149
-0.004635507369250158,0.001441457264505946,0.07526418077344149
-0.004634877369250157,0.001441457264505946,0.0752641807734418
-0.004634247369250158,0.0014414572645061,0.07559780120221114
-0.004633617369250158,0.001778541521449096,0.07526418077344149
-0.004632987369250158,0.002115625778392091,0.07559780120221114
-0.004632357369250158,0.002452710035335087,0.0755978012022113
-0.004631727369250158,0.002452710035335393,0.07526418077344149
-0.004631097369250157,0.003126878549221385,0.07559780120221191
-0.004630467369250157,0.002789794292278696,0.07626504205975057
-0.004629837369250158,0.003126878549221692,0.0755978012022113
-0.004629207369250158,0.0024527100353357,0.0755978012022113
-0.004628577369250158,0.0007672887506211812,0.07493056034467231
-0.004627947369250158,0.0004302044936764993,0.07392969905836232
-0.004627317369250158,0.0004302044936764993,0.07359607862959266
-0.004626687369250157,9.312023673350358e-05,0.07392969905836247
-0.004626057369250158,0.0004302044936764993,0.07426331948713211
-0.004625427369250158,9.312023673335029e-05,0.0745969399159019
-0.004624797369250158,0.001104373007562337,0.07392969905836262
-0.004624167369250158,0.002115625778392244,0.07392969905836247
-0.004623537369250158,0.002115625778392244,0.07426331948713211
-0.004622907369250157,0.001778541521449096,0.07426331948713272
-0.004622277369250158,0.001778541521449096,0.07493056034467155
-0.004621647369250158,0.001778541521449096,0.0745969399159019
-0.004621017369250158,0.0014414572645061,0.07426331948713226
-0.004620387369250158,0.001778541521448789,0.07426331948713211
-0.004619757369250158,0.001104373007562797,0.07426331948713211
-0.004619127369250157,0.001441457264505946,0.0742633194871318
-0.004618497369250157,0.001441457264505946,0.07392969905836262
-0.004617867369250158,0.001441457264505946,0.0745969399159019
-0.004617237369250158,0.002115625778391938,0.0745969399159019
-0.004616607369250158,0.001778541521449402,0.0745969399159019
-0.004615977369250158,0.002115625778392244,0.0745969399159019
-0.004615347369250158,0.002115625778392244,0.0745969399159019
-0.004614717369250157,0.002115625778392244,0.07459693991590129
-0.004614087369250158,0.002115625778391938,0.07392969905836216
-0.004613457369250158,0.001441457264505946,0.07359607862959251
-0.004612827369250158,9.312023673396352e-05,0.07326245820082287
-0.004612197369250158,-0.0002439640202094922,0.07292883777205322
-0.004611567369250158,-0.0005810482771529478,0.07326245820082272
-0.004610937369250157,9.312023673365686e-05,0.07359607862959221
-0.004610307369250157,0.0004302044936764993,0.07326245820082287
-0.004609677369250158,0.0004302044936764993,0.07359607862959251
-0.004609047369250158,0.001104373007562491,0.07359607862959251
-0.004608417369250158,0.001778541521448482,0.07359607862959251
-0.004607787369250158,0.002452710035335393,0.07392969905836232
-0.004607157369250158,0.002452710035335393,0.07392969905836232
-0.004606527369250157,0.002115625778392244,0.07392969905836216
-0.004605897369250158,0.002115625778392244,0.07359607862959251
-0.004605267369250158,0.002115625778392244,0.07326245820082287
-0.004604637369250158,0.001778541521449402,0.07326245820082272
-0.004604007369250158,0.001778541521448789,0.07359607862959251
-0.004603377369250158,0.001104373007562797,0.07359607862959251
-0.004602747369250157,0.00110437300756341,0.07326245820082303
-0.004602117369250158,0.001778541521449402,0.07359607862959251
-0.004601487369250158,0.002452710035335393,0.07359607862959251
-0.004600857369250158,0.002789794292278389,0.07359607862959251
-0.004600227369250158,0.002789794292278542,0.0742633194871315
-0.004599597369250158,0.002789794292278542,0.0745969399159019
-0.004598967369250157,0.002452710035335393,0.07459693991590129
-0.004598337369250157,0.002452710035334934,0.07392969905836186
-0.004597707369250158,0.001441457264505946,0.07292883777205292
-0.004597077369250158,0.0007672887506199549,0.07226159691451363
-0.004596447369250158,0.0004302044936768059,0.07192797648574384
-0.004595817369250158,0.0004302044936764993,0.07192797648574353
-0.004595187369250158,0.0004302044936764993,0.07226159691451317
-0.004594557369250157,0.001104373007562797,0.07192797648574353
-0.004593927369250158,0.001104373007562951,0.07192797648574384
-0.004593297369250158,0.001441457264505946,0.07259521734328313
-0.004592667369250158,0.001441457264505946,0.07292883777205277
-0.004592037369250158,0.002115625778392244,0.07292883777205277
-0.004591407369250158,0.002115625778392244,0.07259521734328313
-0.004590777369250157,0.002115625778392244,0.07259521734328313
-0.004590147369250158,0.002115625778392244,0.07259521734328313
-0.004589517369250158,0.002115625778392244,0.07259521734328313
-0.004588887369250158,0.002115625778392244,0.07259521734328313
-0.004588257369250158,0.001778541521449402,0.07259521734328313
-0.004587627369250158,0.001778541521449096,0.07259521734328313
-0.004586997369250157,0.001441457264506253,0.07292883777205292
-0.004586367369250157,0.001778541521449249,0.07292883777205292
-0.004585737369250158,0.002115625778392244,0.07292883777205292
-0.004585107369250158,0.00245271003533524,0.07259521734328328
-0.004584477369250158,0.002452710035335393,0.0735960786295916
-0.004583847369250158,0.002452710035335393,0.07326245820082272
-0.004583217369250158,0.001441457264505946,0.07259521734328313
-0.004582587369250157,0.0007672887506193417,0.07192797648574292
-0.004581957369250158,0.000430204493676346,0.07126073562820379
-0.004581327369250158,9.312023673335029e-05,0.07092711519943415
-0.004580697369250158,9.312023673335029e-05,0.07092711519943415
-0.004580067369250158,0.0004302044936761928,0.07192797648574262
-0.004579437369250158,0.001104373007562797,0.07259521734328313
-0.004578807369250157,0.001441457264506253,0.07192797648574384
-0.004578177369250157,0.001778541521449096,0.07226159691451317
-0.004577547369250158,0.001778541521449096,0.07192797648574353
-0.004576917369250158,0.002115625778392091,0.07192797648574353
-0.004576287369250158,0.002452710035335087,0.07192797648574353
-0.004575657369250158,0.002115625778392244,0.07159435605697374
-0.004575027369250158,0.002115625778392244,0.07159435605697374
-0.004574397369250157,0.002115625778392091,0.07126073562820409
-0.004573767369250158,0.001778541521449096,0.07159435605697374
-0.004573137369250158,0.002115625778392091,0.07159435605697374
-0.004572507369250158,0.001778541521449249,0.07159435605697374
-0.004571877369250158,0.001778541521449096,0.07126073562820394
-0.004571247369250158,0.001778541521449096,0.07126073562820394
-0.004570617369250157,0.0024527100353357,0.07126073562820455
-0.004569987369250158,0.002789794292278696,0.07192797648574369
-0.004569357369250158,0.003126878549221692,0.07226159691451332
-0.004568727369250158,0.003126878549221692,0.07226159691451332
-0.004568097369250158,0.002452710035336007,0.07226159691451332
-0.004567467369250158,0.001778541521449096,0.07159435605697374
-0.004566837369250157,0.0007672887506190352,0.07092711519943384
-0.004566207369250157,9.312023673304372e-05,0.07059349477066434
-0.004565577369250158,-0.0005810482771529478,0.07059349477066434
-0.004564947369250158,-0.000243964020209952,0.07025987434189471
-0.004564317369250158,9.312023673304373e-05,0.07059349477066404
-0.004563687369250158,0.0007672887506196483,0.07092711519943415
-0.004563057369250158,0.00144145726450564,0.07126073562820379
-0.004562427369250157,0.002115625778392244,0.07126073562820394
-0.004561797369250158,0.002115625778392244,0.07126073562820379
-0.004561167369250158,0.002115625778392244,0.07092711519943415
-0.004560537369250158,0.001778541521449249,0.0705934947706645
-0.004559907369250158,0.002115625778392397,0.07126073562820409
-0.004559277369250158,0.002452710035335393,0.07159435605697374
-0.004558647369250157,0.001104373007563104,0.07126073562820333
-0.004558017369250158,0.001441457264505946,0.07059349477066434
-0.004557387369250158,0.001441457264505946,0.07059349477066434
-0.004556757369250158,0.002115625778391938,0.07059349477066434
-0.004556127369250158,0.002115625778392244,0.07059349477066434
-0.004555497369250158,0.002452710035335393,0.07092711519943415
-0.004554867369250157,0.002789794292278849,0.07126073562820394
-0.004554237369250157,0.003126878549221845,0.07126073562820409
-0.004553607369250158,0.003463962806164841,0.07159435605697374
-0.004552977369250158,0.003126878549221845,0.07126073562820409
-0.004552347369250158,0.002452710035336007,0.07059349477066496
-0.004551717369250158,0.001441457264505946,0.06992625391312476
-0.004551087369250158,0.001104373007562797,0.06992625391312476
-0.004550457369250157,0.0004302044936764993,0.06992625391312507
-0.004549827369250158,0.0004302044936766526,0.07025987434189425
-0.004549197369250158,0.0007672887506196483,0.06959263348435496
-0.004548567369250158,0.0007672887506196483,0.06992625391312461
-0.004547937369250158,0.0007672887506196483,0.07025987434189425
-0.004547307369250158,0.001778541521449096,0.07025987434189455
-0.004546677369250157,0.002789794292278542,0.07092711519943415
-0.004546047369250157,0.002789794292278236,0.07092711519943384
-0.004545417369250158,0.002115625778392244,0.07025987434189455
-0.004544787369250158,0.002115625778392244,0.07025987434189455
-0.004544157369250158,0.002452710035335087,0.07025987434189455
-0.004543527369250158,0.001778541521449096,0.06992625391312476
-0.004542897369250158,0.0014414572645061,0.06959263348435511
-0.004542267369250157,0.0014414572645061,0.06959263348435511
-0.004541637369250158,0.001778541521449096,0.06992625391312476
-0.004541007369250158,0.002115625778392091,0.06992625391312476
-0.004540377369250158,0.001778541521449249,0.06992625391312476
-0.004539747369250158,0.001778541521449096,0.06925901305558547
-0.004539117369250158,0.001778541521449096,0.06992625391312476
-0.004538487369250157,0.001778541521450015,0.07025987434189455
-0.004537857369250158,0.002789794292278849,0.0702598743418944
-0.004537227369250158,0.003463962806164841,0.06992625391312476
-0.004536597369250158,0.003463962806164841,0.07092711519943369
-0.004535967369250158,0.002452710035336313,0.07025987434189516
-0.004535337369250158,0.001778541521449096,0.06992625391312476
-0.004534707369250157,0.001104373007562184,0.06925901305558486
-0.004534077369250157,0.000430204493676346,0.06892539262681537
-0.004533447369250158,9.312023673335029e-05,0.06892539262681537
-0.004532817369250158,9.312023673335029e-05,0.06859177219804573
-0.004532187369250158,9.312023673335029e-05,0.06825815176927608
-0.004531557369250158,0.0004302044936764993,0.06859177219804558
-0.004530927369250158,0.000767288750619495,0.06892539262681521
-0.004530297369250157,0.001778541521449249,0.06892539262681552
-0.004529667369250158,0.002115625778392244,0.06925901305558532
-0.004529037369250158,0.002115625778392244,0.06959263348435496
-0.004528407369250158,0.001778541521449249,0.06992625391312461
-0.004527777369250158,0.001778541521449096,0.06959263348435481
-0.004527147369250158,0.001778541521449096,0.06925901305558517
-0.004526517369250157,0.001778541521449709,0.06892539262681567
-0.004525887369250157,0.00245271003533524,0.06925901305558517
-0.004525257369250158,0.002115625778392244,0.06925901305558517
-0.004524627369250158,0.001778541521449249,0.06892539262681552
-0.004523997369250158,0.001778541521449096,0.06892539262681537
-0.004523367369250158,0.001778541521449096,0.06859177219804558
-0.004522737369250157,0.001778541521448789,0.06859177219804588
-0.004522107369250157,0.0014414572645061,0.06892539262681537
-0.004521477369250158,0.001778541521449096,0.06892539262681537
-0.004520847369250158,0.002115625778392091,0.06892539262681537
-0.004520217369250158,0.002789794292277929,0.06959263348435435
-0.004519587369250158,0.003463962806164841,0.06959263348435496
-0.004518957369250158,0.003126878549221692,0.06959263348435496
-0.004518327369250157,0.002115625778392244,0.06892539262681506
-0.004517697369250158,0.002115625778392091,0.06859177219804527
-0.004517067369250158,0.001778541521449096,0.06792453134050598
-0.004516437369250158,0.001104373007563104,0.06759091091173634
-0.004515807369250158,0.0007672887506199549,0.06759091091173619
-0.004515177369250158,0.0007672887506196483,0.06759091091173619
-0.004514547369250157,0.001441457264506253,0.0675909109117365
-0.004513917369250157,0.001778541521449249,0.06792453134050613
-0.004513287369250158,0.002115625778392244,0.06825815176927577
-0.004512657369250158,0.002115625778392244,0.06792453134050613
-0.004512027369250158,0.002115625778392244,0.06825815176927547
-0.004511397369250158,0.002452710035335393,0.06859177219804558
-0.004510767369250158,0.002789794292278389,0.06859177219804558
-0.004510137369250157,0.002789794292278236,0.06825815176927577
-0.004509507369250158,0.002115625778392244,0.06825815176927577
-0.004508877369250158,0.002115625778392244,0.06859177219804542
-0.004508247369250158,0.001778541521449249,0.06859177219804558
-0.004507617369250158,0.002115625778392091,0.06859177219804512
-0.004506987369250158,0.001778541521449096,0.06759091091173619
-0.004506357369250157,0.001441457264505946,0.06792453134050598
-0.004505727369250158,0.0014414572645061,0.06792453134050598
-0.004505097369250158,0.001778541521449096,0.06792453134050598
-0.004504467369250158,0.002115625778392091,0.06759091091173634
-0.004503837369250158,0.003126878549220772,0.06792453134050568
-0.004503207369250158,0.003126878549221692,0.06825815176927577
-0.004502577369250157,0.003463962806164841,0.06925901305558486
-0.004501947369250157,0.003463962806164534,0.06892539262681506
-0.004501317369250158,0.002789794292278542,0.06825815176927577
-0.004500687369250158,0.002115625778392551,0.06792453134050613
-0.004500057369250158,0.001104373007563717,0.0675909109117365
-0.004499427369250158,0.001104373007562797,0.0669236700541966
-0.004498797369250158,0.0007672887506198016,0.06659004962542694
-0.004498167369250157,0.0007672887506199549,0.0669236700541969
-0.004497537369250158,0.001104373007563104,0.06725729048296654
-0.004496907369250158,0.001778541521449096,0.06759091091173619
-0.004496277369250158,0.0014414572645061,0.06725729048296654
-0.004495647369250158,0.002115625778392397,0.06759091091173634
-0.004495017369250158,0.002452710035335393,0.06792453134050598
-0.004494387369250157,0.002789794292277929,0.06792453134050598
-0.004493757369250157,0.002115625778392397,0.06792453134050598
-0.004493127369250158,0.002452710035335393,0.06792453134050598
-0.004492497369250158,0.002452710035335393,0.06759091091173634
-0.004491867369250158,0.002452710035335393,0.06725729048296669
-0.004491237369250158,0.002115625778392244,0.06725729048296639
-0.004490607369250157,0.002115625778391938,0.0669236700541969
-0.004489977369250157,0.001778541521449096,0.06725729048296639
-0.004489347369250158,0.001778541521449096,0.06725729048296639
-0.004488717369250158,0.001778541521449096,0.06725729048296639
-0.004488087369250158,0.001441457264506253,0.06725729048296639
-0.004487457369250158,0.002115625778392397,0.06725729048296654
