C=1nF, R=24kΩ, Circuits du premier ordre.csv

#Digilent WaveForms Oscilloscope Acquisition
#Device Name: Discovery2
#Serial Number: SN:210321AD5905
#Date Time: 2022-07-04 14:02:08.975
#Sample rate: 1.5873e+06Hz
#Samples: 8192
#Trigger: Source: Channel 1 Type: Edge Condition: Rising Level: 0 V Hyst.: Auto HoldOff: 100 ns
#Channel 1: Range: 500 mV/div Offset: 0 V Attenuation: 1 X Sample Mode: Average
#Channel 2: Range: 500 mV/div Offset: 0 V Attenuation: 1 X Sample Mode: Average
#Wavegen Channel 1: Running
#Mode: Custom
#Type: 3.0.csv
#Frequency: 250 Hz
#Period: 4 ms
#Amplitude: 2 V
#Offset: 0 V
#Phase: 0 бу

Time (s),Channel 1 (V),Channel 2 (V)
-0.004680063741799178,0.001104373007562797,-0.0004676565573018989
-0.004679433741799178,0.001104373007562797,-0.0008012769860716951
-0.004678803741799177,0.001104373007562797,-0.0008012769860719984
-0.004678173741799177,0.001441457264505946,-0.0004676565573025057
-0.004677543741799177,0.0014414572645061,-0.0008012769860718468
-0.004676913741799177,0.001778541521449096,-0.0004676565573022023
-0.004676283741799177,0.001778541521449096,-0.0004676565573022023
-0.004675653741799178,0.001778541521449096,-0.0004676565573022023
-0.004675023741799177,0.001441457264505946,-0.0004676565573022023
-0.004674393741799177,0.0007672887506199549,-0.0004676565573022023
-0.004673763741799177,0.001104373007563104,-0.0008012769860719984
-0.004673133741799177,0.001441457264505793,-0.0008012769860719984
-0.004672503741799177,0.001104373007562797,-0.0008012769860719984
-0.004671873741799178,0.001104373007562797,-0.0004676565573023541
-0.004671243741799177,0.001441457264505793,-0.000134036128532558
-0.004670613741799177,0.001104373007562797,-0.0004676565573022023
-0.004669983741799177,0.0007672887506199549,-0.0004676565573022023
-0.004669353741799177,0.001104373007562951,-0.0004676565573023541
-0.004668723741799177,0.001441457264505946,-0.0008012769860719984
-0.004668093741799178,0.0007672887506199549,-0.0008012769860719984
-0.004667463741799178,0.001104373007562491,-0.0004676565573025057
-0.004666833741799177,0.001104373007562797,-0.0008012769860719984
-0.004666203741799177,0.001104373007563104,-0.0001340361285324063
-0.004665573741799177,0.0014414572645061,-0.000134036128532558
-0.004664943741799177,0.001778541521449096,-0.0004676565573022023
-0.004664313741799177,0.002115625778392091,-0.0001340361285325581
-0.004663683741799178,0.002452710035335087,-0.0004676565573018989
-0.004663053741799177,0.001441457264505486,-0.0004676565573022023
-0.004662423741799177,0.0004302044936764993,-0.0004676565573022023
-0.004661793741799177,9.312023673396345e-05,-0.001134897414842098
-0.004661163741799177,0.0007672887506198016,-0.001468517843611287
-0.004660533741799177,0.001104373007562797,-0.0008012769860719984
-0.004659903741799178,0.001104373007562797,-0.0004676565573023541
-0.004659273741799178,0.00144145726450564,-0.0004676565573022023
-0.004658643741799177,0.001441457264505946,-0.0001340361285324063
-0.004658013741799177,0.00144145726450564,-0.0004676565573022023
-0.004657383741799177,0.001104373007562644,-0.0004676565573022023
-0.004656753741799177,0.0007672887506196483,-0.0004676565573022023
-0.004656123741799177,0.0007672887506196483,-0.0004676565573022023
-0.004655493741799178,0.001104373007562491,-0.0001340361285327097
-0.004654863741799177,0.001441457264505946,-0.0004676565573022023
-0.004654233741799177,0.001104373007562951,-0.0004676565573022023
-0.004653603741799177,0.0007672887506199549,-0.0004676565573022023
-0.004652973741799177,0.001441457264505946,-0.0004676565573022023
-0.004652343741799177,0.001104373007562797,-0.0001340361285324063
-0.004651713741799178,0.0007672887506198016,-0.0004676565573020506
-0.004651083741799177,0.0007672887506198016,-0.0004676565573020506
-0.004650453741799177,0.001104373007562797,-0.0001340361285324063
-0.004649823741799177,0.001441457264506253,-0.0004676565573025057
-0.004649193741799177,0.001778541521449096,-0.0008012769860718468
-0.004648563741799177,0.001778541521449096,-0.0004676565573022023
-0.004647933741799178,0.0014414572645061,-0.0004676565573022023
-0.004647303741799178,0.001441457264505946,-0.0004676565573022023
-0.004646673741799177,0.0007672887506196483,-0.0004676565573022023
-0.004646043741799177,0.0007672887506196483,-0.0001340361285327097
-0.004645413741799177,0.000767288750619495,-0.0004676565573020506
-0.004644783741799177,0.0004302044936764993,-0.0001340361285324063
-0.004644153741799177,0.001104373007562491,-0.0001340361285324063
-0.004643523741799178,0.001104373007562797,-0.0001340361285324063
-0.004642893741799177,0.001441457264505946,0.0001995843002373897
-0.004642263741799177,0.001441457264505946,-0.0001340361285322546
-0.004641633741799177,0.001441457264505946,-0.0001340361285324063
-0.004641003741799177,0.001441457264505793,-0.0001340361285324063
-0.004640373741799177,0.001104373007562797,-0.0001340361285324063
-0.004639743741799178,0.0004302044936768059,-0.000801276986071695
-0.004639113741799178,9.312023673365685e-05,-0.001134897414841491
-0.004638483741799177,0.0007672887506196483,-0.001134897414841794
-0.004637853741799177,0.0004302044936768059,-0.0008012769860723019
-0.004637223741799177,0.000767288750619495,-0.001134897414841643
-0.004636593741799177,0.0004302044936764993,-0.0008012769860719984
-0.004635963741799178,0.0004302044936764993,-0.0004676565573023541
-0.004635333741799178,0.0004302044936764993,-0.0008012769860716951
-0.004634703741799177,0.001104373007562797,-0.0008012769860719984
-0.004634073741799177,0.0007672887506196483,-0.000801276986071695
-0.004633443741799177,0.0007672887506198016,-0.0004676565573022023
-0.004632813741799177,0.001104373007562797,-0.0004676565573022023
-0.004632183741799177,0.001441457264505793,-0.0004676565573022023
-0.004631553741799178,0.001104373007563104,-0.0004676565573022023
-0.004630923741799177,0.001104373007563104,-0.0004676565573022023
-0.004630293741799177,0.001778541521449096,-0.0004676565573022023
-0.004629663741799177,0.001104373007562491,-0.0004676565573018989
-0.004629033741799177,0.0007672887506198016,-0.0001340361285324063
-0.004628403741799177,0.001104373007562797,-0.0001340361285324063
-0.004627773741799178,0.001441457264505793,0.0001995843002372379
-0.004627143741799178,0.001441457264505946,-0.0004676565573015955
-0.004626513741799177,0.0004302044936764993,-0.0008012769860719984
-0.004625883741799177,0.0007672887506199549,-0.0004676565573022023
-0.004625253741799177,0.001104373007562797,-0.0004676565573022023
-0.004624623741799177,0.001104373007562797,-0.0004676565573022023
-0.004623993741799177,0.001104373007562797,-0.0004676565573022023
-0.004623363741799178,0.0007672887506199549,-0.0001340361285327097
-0.004622733741799177,0.0007672887506196483,0.0001995843002373897
-0.004622103741799177,0.00144145726450564,0.0001995843002373897
-0.004621473741799177,0.001441457264505793,-0.0004676565573022023
-0.004620843741799177,0.001104373007562797,-0.0004676565573022023
-0.004620213741799177,0.001441457264505946,-0.0008012769860719984
-0.004619583741799178,0.001778541521448942,-0.0001340361285327098
-0.004618953741799177,0.001778541521448942,0.0005332047290068822
-0.004618323741799177,0.001441457264505946,-0.0001340361285324063
-0.004617693741799177,0.001104373007562491,-0.000801276986071695
-0.004617063741799177,0.000767288750619495,-0.0004676565573022023
-0.004616433741799177,0.0004302044936764993,-0.0004676565573022023
-0.004615803741799178,9.31202367335036e-05,-0.0004676565573022023
-0.004615173741799178,9.312023673335029e-05,-0.0004676565573022023
-0.004614543741799177,9.312023673335029e-05,-0.0008012769860719984
-0.004613913741799177,0.001104373007562184,-0.000801276986071695
-0.004613283741799177,0.0004302044936764993,-0.0004676565573022023
-0.004612653741799177,0.0004302044936764993,-0.0004676565573022023
-0.004612023741799177,9.31202367335036e-05,-0.0001340361285325581
-0.004611393741799178,0.0004302044936761928,-0.0004676565573018989
-0.004610763741799177,0.0004302044936764993,-0.0008012769860719984
-0.004610133741799177,0.0004302044936764993,-0.0001340361285327098
-0.004609503741799177,9.312023673365686e-05,-0.0001340361285327097
-0.004608873741799177,0.0004302044936766526,-0.0004676565573022023
-0.004608243741799177,0.0007672887506196483,-0.0004676565573022023
-0.004607613741799178,0.0007672887506196483,-0.0008012769860718466
-0.004606983741799178,0.0004302044936768059,-0.001134897414841491
-0.004606353741799177,9.312023673335029e-05,-0.001134897414841794
-0.004605723741799177,9.312023673365686e-05,-0.000801276986071695
-0.004605093741799177,0.000430204493676346,-0.0004676565573025057
-0.004604463741799177,9.312023673335029e-05,-0.001134897414841794
-0.004603833741799178,0.000430204493676346,-0.001802138272381083
-0.004603203741799178,0.0007672887506193417,-0.0008012769860729087
-0.004602573741799177,0.0007672887506196483,-0.0004676565573022023
-0.004601943741799177,0.001104373007562797,-0.0008012769860723019
-0.004601313741799177,0.001104373007562797,-0.001134897414841794
-0.004600683741799177,0.001104373007562797,-0.001134897414841794
-0.004600053741799177,0.001104373007562797,-0.001134897414841794
-0.004599423741799178,0.00144145726450564,-0.001134897414841794
-0.004598793741799177,0.001104373007562797,-0.001134897414841643
-0.004598163741799177,0.001104373007562797,-0.0008012769860719984
-0.004597533741799177,0.001104373007562491,-0.0001340361285324063
-0.004596903741799177,0.0007672887506199549,-0.0001340361285324063
-0.004596273741799177,0.001441457264505946,-0.0001340361285324063
-0.004595643741799178,0.001104373007562951,-0.0001340361285324063
-0.004595013741799178,0.0007672887506199549,-0.001134897414840884
-0.004594383741799177,0.0004302044936764993,-0.0008012769860719984
-0.004593753741799177,0.0004302044936761928,-0.001134897414841794
-0.004593123741799177,9.312023673335029e-05,-0.001134897414841643
-0.004592493741799177,9.312023673335029e-05,-0.0008012769860719984
-0.004591863741799177,0.000430204493676346,-0.0004676565573023541
-0.004591233741799178,0.0007672887506193417,-0.0001340361285327097
-0.004590603741799177,0.0004302044936764993,-0.0004676565573022023
-0.004589973741799177,9.31202367335036e-05,-0.0008012769860718466
-0.004589343741799177,0.0004302044936766526,-0.0004676565573022023
-0.004588713741799177,0.0007672887506196483,-0.0004676565573022023
-0.004588083741799177,0.001104373007562797,-0.0008012769860719984
-0.004587453741799178,0.0007672887506198016,-0.0004676565573023541
-0.004586823741799177,0.000767288750619495,-0.000134036128532558
-0.004586193741799177,0.0004302044936764993,-0.0004676565573022023
-0.004585563741799177,0.0004302044936761928,-0.000801276986071695
-0.004584933741799177,9.312023673350358e-05,-0.0004676565573023541
-0.004584303741799177,0.0004302044936764993,-0.0008012769860719984
-0.004583673741799178,0.0004302044936764993,-0.0008012769860719984
-0.004583043741799178,0.0007672887506193417,-0.0004676565573025057
-0.004582413741799177,0.001104373007562797,-0.0004676565573022023
-0.004581783741799177,0.0007672887506193417,-0.000801276986071695
-0.004581153741799177,0.0004302044936764993,-0.0004676565573022023
-0.004580523741799177,0.0004302044936764993,-0.0004676565573022023
-0.004579893741799177,0.000767288750619495,-0.0004676565573022023
-0.004579263741799178,0.0007672887506196483,-0.0001340361285327097
-0.004578633741799177,0.001104373007562797,-0.0004676565573022023
-0.004578003741799177,0.0007672887506198016,-0.0008012769860718466
-0.004577373741799177,0.0007672887506193417,-0.000467656557301292
-0.004576743741799177,0.0004302044936766526,0.000533204729007034
-0.004576113741799177,0.0007672887506196483,0.0001995843002373897
-0.004575483741799178,0.001104373007562644,-0.0001340361285322546
-0.004574853741799178,0.00144145726450564,-0.0001340361285324063
-0.004574223741799177,0.001104373007562797,-0.0004676565573022023
-0.004573593741799177,9.312023673365686e-05,-0.001134897414841794
-0.004572963741799177,0.0004302044936764993,-0.001134897414841643
-0.004572333741799177,0.0004302044936764993,-0.0008012769860719984
-0.004571703741799178,0.001104373007562491,-0.0004676565573023541
-0.004571073741799178,0.00144145726450564,-0.0004676565573022023
-0.004570443741799177,0.001104373007562797,-0.0004676565573022023
-0.004569813741799177,0.001104373007562797,-0.0001340361285325581
-0.004569183741799177,0.001104373007562951,-0.0004676565573017472
-0.004568553741799177,0.001441457264505946,0.0005332047290071857
-0.004567923741799177,0.001104373007562951,0.0001995843002375414
-0.004567293741799178,0.0004302044936771124,-0.0001340361285321029
-0.004566663741799177,0.0004302044936764993,-0.0004676565573025057
-0.004566033741799177,0.0004302044936764993,-0.001134897414841794
-0.004565403741799177,0.0004302044936768059,-0.0008012769860723019
-0.004564773741799177,0.0007672887506198016,-0.001134897414841643
-0.004564143741799177,0.001104373007562797,-0.0008012769860719984
-0.004563513741799178,0.0007672887506198016,-0.0008012769860719984
-0.004562883741799178,0.001441457264505333,-0.0008012769860719984
-0.004562253741799177,0.001104373007562797,-0.0004676565573022023
-0.004561623741799177,0.001441457264505946,-0.0008012769860719984
-0.004560993741799177,0.001441457264505793,-0.0008012769860719984
-0.004560363741799177,0.001104373007562797,-0.0008012769860719984
-0.004559733741799177,0.0004302044936768059,-0.0001340361285327098
-0.004559103741799178,0.0004302044936764993,-0.0001340361285324063
-0.004558473741799177,0.0007672887506196483,-0.0001340361285324063
-0.004557843741799177,0.001104373007562644,-0.0004676565573020506
-0.004557213741799177,0.001441457264505946,-0.0008012769860719984
-0.004556583741799177,0.001441457264505946,-0.0008012769860719984
-0.004555953741799177,0.001441457264505946,-0.0004676565573022023
-0.004555323741799178,0.001441457264505946,-0.0008012769860718466
-0.004554693741799177,0.001441457264505946,-0.0008012769860719984
-0.004554063741799177,0.001441457264505946,-0.0008012769860719984
-0.004553433741799177,0.0004302044936761928,-0.001134897414841491
-0.004552803741799177,9.312023673350358e-05,-0.0008012769860721501
-0.004552173741799177,0.0004302044936764993,-0.001134897414841794
-0.004551543741799178,0.000767288750619495,-0.001134897414841794
-0.004550913741799178,0.0007672887506196483,-0.001134897414841794
-0.004550283741799177,0.001104373007562797,-0.0004676565573022023
-0.004549653741799177,0.001104373007562797,-0.0004676565573022023
-0.004549023741799177,0.001104373007562797,-0.0004676565573022023
-0.004548393741799177,0.001104373007562797,-0.0004676565573022023
-0.004547763741799177,0.0007672887506198016,-0.0004676565573022023
-0.004547133741799178,0.0004302044936768059,-0.001134897414841188
-0.004546503741799177,0.0007672887506196483,-0.0008012769860719984
-0.004545873741799177,0.0007672887506196483,-0.0004676565573023541
-0.004545243741799177,0.0007672887506199549,-0.0008012769860719984
-0.004544613741799177,0.001104373007563104,-0.0008012769860719984
-0.004543983741799177,0.001778541521449096,-0.0008012769860719984
-0.004543353741799178,0.001104373007563104,-0.0004676565573023541
-0.004542723741799178,0.001104373007562797,-0.0004676565573022023
-0.004542093741799177,0.0007672887506196483,-0.0004676565573022023
-0.004541463741799177,0.0007672887506199549,-0.0001340361285327097
-0.004540833741799177,0.001104373007562797,-0.0004676565573022023
-0.004540203741799177,0.001104373007562797,-0.0004676565573022023
-0.004539573741799178,0.0007672887506198016,-0.0001340361285325581
-0.004538943741799178,0.001104373007562491,-0.0004676565573018989
-0.004538313741799177,0.001104373007562797,-0.0004676565573022023
-0.004537683741799177,0.0007672887506198016,-0.0004676565573022023
-0.004537053741799177,0.001104373007562644,-0.0001340361285324063
-0.004536423741799177,0.0007672887506196483,-0.0001340361285324063
-0.004535793741799177,0.0007672887506196483,-0.0004676565573020506
-0.004535163741799178,0.0007672887506196483,-0.0004676565573022023
-0.004534533741799177,0.0007672887506196483,-0.0008012769860719984
-0.004533903741799177,0.0007672887506196483,-0.0008012769860719984
-0.004533273741799177,0.001104373007563104,-0.0008012769860719984
-0.004532643741799177,0.001441457264505793,-0.0008012769860718468
-0.004532013741799177,0.001104373007562797,-0.0004676565573022023
-0.004531383741799178,0.0007672887506198016,-0.0001340361285325581
-0.004530753741799178,-0.0002439640202088788,-0.0004676565573018989
-0.004530123741799177,-0.0002439640202097987,-0.0004676565573022023
-0.004529493741799177,0.0004302044936764993,-0.0008012769860719984
-0.004528863741799177,0.0004302044936766526,-0.0008012769860721501
-0.004528233741799177,0.0007672887506196483,-0.001134897414841794
-0.004527603741799177,0.001104373007562644,-0.0008012769860721502
-0.004526973741799178,0.0007672887506199549,-0.0004676565573025057
-0.004526343741799177,0.001104373007562797,-0.0004676565573022023
-0.004525713741799177,0.001441457264505793,-0.0001340361285325581
-0.004525083741799177,0.001104373007562797,-0.000134036128532558
-0.004524453741799177,0.001104373007562797,-0.0004676565573022023
-0.004523823741799177,0.001104373007562797,-0.0004676565573022023
-0.004523193741799178,0.0007672887506198016,-0.0004676565573022023
-0.004522563741799177,0.0007672887506198016,-0.0001340361285324063
-0.004521933741799177,0.001104373007562797,-0.0001340361285324063
-0.004521303741799177,0.001104373007562491,-0.0008012769860719984
-0.004520673741799177,0.0007672887506196483,-0.0008012769860718468
-0.004520043741799177,0.0007672887506196483,-0.0004676565573022023
-0.004519413741799178,0.0004302044936766526,-0.0004676565573022023
-0.004518783741799178,0.0007672887506193417,-0.0004676565573022023
-0.004518153741799177,0.0007672887506196483,-0.0004676565573022023
-0.004517523741799177,0.0007672887506196483,-0.0004676565573022023
-0.004516893741799177,0.0007672887506198016,-0.0004676565573022023
-0.004516263741799177,0.001104373007562797,-0.0004676565573022023
-0.004515633741799177,0.0007672887506198016,-0.0004676565573022023
-0.004515003741799178,0.0007672887506196483,-0.0001340361285327097
-0.004514373741799177,0.001104373007562797,-0.0008012769860719984
-0.004513743741799177,0.001104373007562797,-0.001134897414841794
-0.004513113741799177,0.001441457264506253,-0.0008012769860719984
-0.004512483741799177,0.001778541521448942,-0.0008012769860719984
-0.004511853741799177,0.001441457264505946,-0.0008012769860719984
-0.004511223741799178,0.0007672887506199549,-0.0004676565573023541
-0.004510593741799178,0.001104373007562491,-0.0001340361285327097
-0.004509963741799177,0.001778541521449096,0.0001995843002373897
-0.004509333741799177,0.001778541521448789,-0.0004676565573025057
-0.004508703741799177,0.001441457264505793,-0.0008012769860721501
-0.004508073741799177,0.001104373007562797,-0.001134897414841794
-0.004507443741799178,0.0007672887506198016,-0.001468517843611438
-0.004506813741799178,0.0007672887506196483,-0.001134897414842098
-0.004506183741799177,9.312023673335029e-05,-0.00146851784361159
-0.004505553741799177,9.312023673335029e-05,-0.001134897414841946
-0.004504923741799177,0.0007672887506196483,-0.0008012769860719984
-0.004504293741799177,0.0007672887506196483,-0.0008012769860719984
-0.004503663741799177,0.001104373007562644,-0.0008012769860719984
-0.004503033741799178,0.0007672887506198016,-0.0008012769860719984
-0.004502403741799177,0.000767288750619495,-0.001134897414841794
-0.004501773741799177,0.0004302044936764993,-0.001134897414841794
-0.004501143741799177,0.0004302044936768059,-0.0008012769860719984
-0.004500513741799177,0.0007672887506198016,-0.0008012769860719984
-0.004499883741799177,0.001104373007562797,-0.0008012769860719984
-0.004499253741799178,0.001104373007562797,-0.001134897414841643
-0.004498623741799178,0.001104373007562797,-0.0008012769860723018
-0.004497993741799177,0.001104373007562797,-0.0008012769860719984
-0.004497363741799177,0.0007672887506199549,-0.0008012769860723019
-0.004496733741799177,0.001104373007562797,-0.001134897414841794
