C=1nF, R=+∞, Circuits du deuxième ordre.csv

#Digilent WaveForms Oscilloscope Acquisition
#Device Name: Discovery2
#Serial Number: SN:210321AD5905
#Date Time: 2022-07-04 14:03:41.431
#Sample rate: 1.5873e+06Hz
#Samples: 8192
#Trigger: Source: Channel 1 Type: Edge Condition: Rising Level: 0 V Hyst.: Auto HoldOff: 100 ns
#Channel 1: Range: 500 mV/div Offset: 0 V Attenuation: 1 X Sample Mode: Average
#Channel 2: Range: 500 mV/div Offset: 0 V Attenuation: 1 X Sample Mode: Average
#Wavegen Channel 1: Running
#Mode: Custom
#Type: 3.0.csv
#Frequency: 250 Hz
#Period: 4 ms
#Amplitude: 2 V
#Offset: 0 V
#Phase: 0 бу

Time (s),Channel 1 (V),Channel 2 (V)
-0.004680549846727635,0.005149384090880586,0.05524695504725373
-0.004679919846727635,0.00481229983393759,0.05524695504725373
-0.004679289846727636,0.005486468347823428,0.05491333461848409
-0.004678659846727635,0.00582355260476673,0.05491333461848394
-0.004678029846727635,0.005486468347823735,0.05491333461848394
-0.004677399846727635,0.005486468347824041,0.05491333461848394
-0.004676769846727635,0.00582355260476673,0.05491333461848424
-0.004676139846727635,0.005486468347823735,0.05558057547602352
-0.004675509846727635,0.004812299833937743,0.05491333461848424
-0.004674879846727636,0.004475215576994594,0.05457971418971444
-0.004674249846727635,0.004138131320051138,0.05457971418971413
-0.004673619846727635,0.004812299833938356,0.05491333461848454
-0.004672989846727635,0.005823552604766424,0.05558057547602352
-0.004672359846727635,0.004812299833937436,0.05558057547602352
-0.004671729846727635,0.004812299833937436,0.05491333461848424
-0.004671099846727636,0.005486468347823121,0.05491333461848394
-0.004670469846727635,0.006497721118653182,0.05491333461848394
-0.004669839846727635,0.006497721118653182,0.05558057547602321
-0.004669209846727635,0.006160636861709879,0.05524695504725373
-0.004668579846727635,0.00582355260476627,0.05524695504725373
-0.004667949846727635,0.004475215576994288,0.05524695504725373
-0.004667319846727636,0.003801047063108296,0.05558057547602337
-0.004666689846727635,0.003463962806165147,0.05491333461848394
-0.004666059846727635,0.004138131320051138,0.05491333461848394
-0.004665429846727635,0.004475215576994594,0.05457971418971444
-0.004664799846727635,0.004812299833937283,0.05491333461848394
-0.004664169846727635,0.004475215576994288,0.05491333461848394
-0.004663539846727635,0.004475215576994288,0.05491333461848394
-0.004662909846727636,0.005149384090879973,0.05491333461848394
-0.004662279846727635,0.005149384090880586,0.05457971418971413
-0.004661649846727635,0.005149384090879973,0.05424609376094434
-0.004661019846727635,0.004475215576994441,0.0542460937609445
-0.004660389846727635,0.004812299833937436,0.05457971418971413
-0.004659759846727635,0.004812299833937436,0.05491333461848379
-0.004659129846727636,0.00514938409088028,0.05491333461848394
-0.004658499846727635,0.005486468347823735,0.05491333461848394
-0.004657869846727635,0.005149384090880586,0.05491333461848394
-0.004657239846727635,0.004475215576994594,0.05491333461848394
-0.004656609846727635,0.004812299833937436,0.05491333461848394
-0.004655979846727635,0.004812299833937436,0.05491333461848394
-0.004655349846727636,0.004475215576994441,0.05424609376094465
-0.004654719846727636,0.00481229983393713,0.05424609376094434
-0.004654089846727635,0.005149384090880586,0.05457971418971413
-0.004653459846727635,0.005149384090880586,0.05457971418971413
-0.004652829846727635,0.005149384090880586,0.05457971418971398
-0.004652199846727635,0.005149384090880586,0.05424609376094434
-0.004651569846727635,0.004475215576994594,0.05457971418971398
-0.004650939846727636,0.00481229983393713,0.05457971418971413
-0.004650309846727635,0.004812299833937436,0.05457971418971413
-0.004649679846727635,0.005149384090880432,0.0542460937609445
-0.004649049846727635,0.005486468347823888,0.05424609376094404
-0.004648419846727635,0.005823552604766883,0.05357885290340475
-0.004647789846727635,0.005823552604766883,0.05391247333217439
-0.004647159846727636,0.004812299833937896,0.05457971418971383
-0.004646529846727635,0.004812299833937283,0.05424609376094434
-0.004645899846727635,0.004475215576994288,0.05424609376094434
-0.004645269846727635,0.004138131320051444,0.05424609376094495
-0.004644639846727635,0.004475215576994594,0.05491333461848394
-0.004644009846727635,0.005149384090880586,0.05491333461848394
-0.004643379846727635,0.005486468347823581,0.05457971418971429
-0.004642749846727636,0.005149384090880892,0.05424609376094465
-0.004642119846727635,0.006160636861710033,0.05457971418971413
-0.004641489846727635,0.006497721118653488,0.05457971418971444
-0.004640859846727635,0.006834805375596025,0.05491333461848394
-0.004640229846727635,0.006160636861710033,0.05491333461848394
-0.004639599846727635,0.004138131320052058,0.05424609376094465
-0.004638969846727636,0.003126878549222611,0.05424609376094434
-0.004638339846727635,0.003126878549221692,0.05424609376094434
-0.004637709846727635,0.003801047063107683,0.05391247333217469
-0.004637079846727635,0.004138131320051138,0.05424609376094465
-0.004636449846727635,0.004138131320051292,0.05457971418971398
-0.004635819846727635,0.004475215576994288,0.05424609376094434
-0.004635189846727636,0.005149384090880279,0.05391247333217469
-0.004634559846727635,0.00481229983393759,0.05391247333217469
-0.004633929846727635,0.005149384090880586,0.05424609376094434
-0.004633299846727635,0.005823552604766577,0.05391247333217454
-0.004632669846727635,0.005486468347823735,0.05391247333217454
-0.004632039846727635,0.005486468347823735,0.05391247333217454
-0.004631409846727635,0.005149384090880739,0.05424609376094419
-0.004630779846727636,0.004475215576994901,0.05424609376094434
-0.004630149846727635,0.005149384090880586,0.05391247333217454
-0.004629519846727635,0.005823552604766577,0.05391247333217423
-0.004628889846727635,0.005486468347823581,0.0535788529034049
-0.004628259846727635,0.005149384090880586,0.05391247333217454
-0.004627629846727635,0.005486468347823581,0.05324523247463527
-0.004626999846727636,0.005486468347823735,0.05324523247463496
-0.004626369846727635,0.005149384090880586,0.05324523247463496
-0.004625739846727635,0.004812299833937436,0.05357885290340475
-0.004625109846727635,0.004812299833937436,0.05357885290340506
-0.004624479846727635,0.00481229983393759,0.05391247333217454
-0.004623849846727635,0.005149384090880586,0.05391247333217454
-0.004623219846727636,0.00481229983393759,0.0535788529034049
-0.004622589846727636,0.004475215576994594,0.05357885290340475
-0.004621959846727635,0.004475215576994288,0.05357885290340475
-0.004621329846727635,0.004475215576994288,0.05357885290340506
-0.004620699846727635,0.004475215576994441,0.05391247333217439
-0.004620069846727635,0.004812299833937436,0.05357885290340475
-0.004619439846727635,0.004475215576994441,0.05357885290340475
-0.004618809846727636,0.005149384090879973,0.05391247333217423
-0.004618179846727635,0.005486468347823735,0.05424609376094434
-0.004617549846727635,0.005149384090880739,0.05357885290340506
-0.004616919846727635,0.004812299833937283,0.05357885290340475
-0.004616289846727635,0.004475215576994288,0.05357885290340475
-0.004615659846727635,0.004138131320051292,0.05357885290340475
-0.004615029846727636,0.00481229983393713,0.05391247333217439
-0.004614399846727635,0.005823552604766883,0.05391247333217454
-0.004613769846727635,0.005823552604766883,0.05391247333217454
-0.004613139846727635,0.006497721118653795,0.05424609376094404
-0.004612509846727635,0.007171889632539326,0.05391247333217454
-0.004611879846727635,0.006834805375596331,0.05391247333217454
-0.004611249846727635,0.004812299833938357,0.05391247333217454
-0.004610619846727636,0.003801047063108909,0.05391247333217454
-0.004609989846727635,0.002789794292278542,0.05324523247463496
-0.004609359846727635,0.003463962806165454,0.05324523247463496
-0.004608729846727635,0.004138131320051292,0.05324523247463511
-0.004608099846727635,0.004475215576994288,0.05357885290340475
-0.004607469846727635,0.004812299833937283,0.05357885290340475
-0.004606839846727636,0.005486468347823121,0.05391247333217423
-0.004606209846727635,0.005149384090880586,0.05391247333217454
-0.004605579846727635,0.005149384090880586,0.0535788529034049
-0.004604949846727635,0.004475215576994594,0.05357885290340506
-0.004604319846727635,0.004812299833937743,0.05391247333217454
-0.004603689846727635,0.005486468347823735,0.05391247333217454
-0.004603059846727636,0.006160636861709727,0.0535788529034049
-0.004602429846727635,0.005823552604766577,0.0535788529034046
-0.004601799846727635,0.005149384090880586,0.05324523247463496
-0.004601169846727635,0.00481229983393805,0.05324523247463496
-0.004600539846727635,0.005486468347823888,0.05324523247463511
-0.004599909846727635,0.005823552604766883,0.05357885290340475
-0.004599279846727635,0.005823552604766883,0.05391247333217439
-0.004598649846727636,0.004812299833938357,0.05291161204586606
-0.004598019846727635,0.005149384090880586,0.05291161204586516
-0.004597389846727635,0.00514938409088028,0.05357885290340475
-0.004596759846727635,0.00481229983393759,0.0535788529034046
-0.004596129846727635,0.005149384090880586,0.05324523247463496
-0.004595499846727635,0.005486468347823581,0.05324523247463496
-0.004594869846727636,0.005486468347823735,0.05324523247463496
-0.004594239846727635,0.006160636861709879,0.0535788529034049
-0.004593609846727635,0.005823552604766883,0.05391247333217454
-0.004592979846727635,0.006160636861710033,0.05357885290340475
-0.004592349846727635,0.006160636861710033,0.05357885290340475
-0.004591719846727635,0.006160636861710033,0.05357885290340475
-0.004591089846727636,0.006160636861710033,0.05324523247463511
-0.004590459846727636,0.006160636861710033,0.05357885290340444
-0.004589829846727635,0.006497721118653182,0.05357885290340475
-0.004589199846727635,0.006834805375596331,0.05391247333217485
-0.004588569846727635,0.006834805375596331,0.05424609376094434
-0.004587939846727635,0.006834805375596331,0.05424609376094434
-0.004587309846727635,0.007508973889482322,0.05391247333217469
-0.004586679846727636,0.008183142403368314,0.05391247333217454
-0.004586049846727635,0.009194395174198374,0.05424609376094434
-0.004585419846727635,0.01020564794502736,0.05424609376094434
-0.004584789846727635,0.008857310917254151,0.05424609376094419
-0.004584159846727635,0.006497721118653182,0.05391247333217454
-0.004583529846727635,0.005149384090880586,0.05391247333217454
-0.004582899846727636,0.004475215576994594,0.05324523247463527
-0.004582269846727635,0.004138131320051444,0.05324523247463496
-0.004581639846727635,0.004812299833937436,0.05324523247463496
-0.004581009846727635,0.004812299833937743,0.05291161204586546
-0.004580379846727635,0.005149384090881046,0.05324523247463511
-0.004579749846727635,0.006160636861710033,0.05357885290340475
-0.004579119846727635,0.006160636861710033,0.05391247333217439
-0.004578489846727636,0.006160636861710033,0.05391247333217454
-0.004577859846727635,0.006160636861710033,0.05424609376094434
-0.004577229846727635,0.006160636861710339,0.05324523247463496
-0.004576599846727635,0.006497721118653182,0.05324523247463527
-0.004575969846727635,0.006497721118653182,0.05391247333217454
-0.004575339846727635,0.006497721118653182,0.05424609376094419
-0.004574709846727636,0.006834805375596025,0.05391247333217485
-0.004574079846727635,0.00717188963253948,0.05391247333217454
-0.004573449846727635,0.006497721118653488,0.05391247333217454
-0.004572819846727635,0.00616063686170942,0.05391247333217423
-0.004572189846727635,0.005486468347823888,0.05357885290340475
-0.004571559846727635,0.005823552604766883,0.05357885290340475
-0.004570929846727636,0.007171889632538867,0.05391247333217439
-0.004570299846727636,0.007508973889482322,0.05424609376094404
-0.004569669846727635,0.006497721118653182,0.05391247333217454
-0.004569039846727635,0.006160636861710646,0.05391247333217485
-0.004568409846727635,0.006834805375596485,0.0542460937609445
-0.004567779846727635,0.00717188963253948,0.05457971418971413
-0.004567149846727635,0.006834805375596485,0.05391247333217485
-0.004566519846727636,0.006497721118653488,0.05391247333217454
-0.004565889846727635,0.006160636861710033,0.05424609376094434
-0.004565259846727635,0.006834805375597251,0.05424609376094434
-0.004564629846727635,0.00784605814642547,0.05424609376094419
-0.004563999846727635,0.00717188963253948,0.05391247333217454
-0.004563369846727635,0.00717188963253948,0.05391247333217454
-0.004562739846727636,0.00717188963253948,0.05424609376094404
-0.004562109846727635,0.007508973889482629,0.05391247333217469
-0.004561479846727635,0.007508973889482629,0.05424609376094434
-0.004560849846727635,0.008183142403370152,0.05424609376094434
-0.004560219846727635,0.009531479431141982,0.0542460937609448
-0.004559589846727635,0.01054273220197097,0.05524695504725373
-0.004558959846727636,0.01121690071585696,0.05457971418971444
-0.004558329846727636,0.009194395174200214,0.05424609376094465
-0.004557699846727635,0.007508973889482629,0.05391247333217454
-0.004557069846727635,0.00481229983393713,0.05357885290340444
-0.004556439846727635,0.004475215576994594,0.05324523247463496
-0.004555809846727635,0.005149384090880586,0.05324523247463496
-0.004555179846727635,0.005149384090880586,0.05324523247463496
-0.004554549846727636,0.005149384090880586,0.05324523247463496
-0.004553919846727635,0.006497721118653182,0.05324523247463496
-0.004553289846727635,0.007171889632539173,0.0535788529034046
-0.004552659846727635,0.007508973889482629,0.05391247333217469
-0.004552029846727635,0.007508973889482629,0.05424609376094434
-0.004551399846727635,0.00717188963253948,0.05424609376094434
-0.004550769846727636,0.007508973889482475,0.05424609376094434
-0.004550139846727635,0.007846058146425777,0.05424609376094419
-0.004549509846727635,0.007846058146425777,0.05391247333217454
-0.004548879846727635,0.007846058146426084,0.05424609376094434
-0.004548249846727635,0.008183142403368466,0.05424609376094434
-0.004547619846727635,0.00717188963253948,0.05424609376094434
-0.004546989846727635,0.006834805375596485,0.05357885290340506
-0.004546359846727636,0.007171889632539174,0.05424609376094374
-0.004545729846727635,0.007508973889482629,0.05424609376094434
-0.004545099846727635,0.007171889632539786,0.05457971418971413
-0.004544469846727635,0.007508973889482475,0.05457971418971398
-0.004543839846727635,0.00717188963253948,0.05424609376094434
-0.004543209846727635,0.006834805375596485,0.05424609376094434
-0.004542579846727636,0.006834805375596331,0.05424609376094434
-0.004541949846727635,0.00717188963253948,0.05424609376094434
-0.004541319846727635,0.00784605814642547,0.05424609376094434
-0.004540689846727635,0.007846058146425165,0.05424609376094404
-0.004540059846727635,0.00717188963253948,0.05391247333217454
-0.004539429846727635,0.00717188963253948,0.05391247333217454
-0.004538799846727636,0.007508973889482475,0.05424609376094419
-0.004538169846727636,0.007171889632539786,0.05424609376094434
-0.004537539846727635,0.00717188963253948,0.05424609376094434
-0.004536909846727635,0.007508973889483548,0.05457971418971474
-0.004536279846727635,0.008520226660312843,0.05524695504725373
-0.004535649846727635,0.01020564794502782,0.05524695504725373
-0.004535019846727635,0.01087981645891381,0.05491333461848409
-0.004534389846727636,0.01087981645891412,0.05558057547602292
-0.004533759846727635,0.009531479431141522,0.05491333461848394
-0.004533129846727635,0.008183142403366166,0.05491333461848363
-0.004532499846727635,0.005149384090880126,0.05457971418971383
-0.004531869846727635,0.004138131320051138,0.05391247333217454
-0.004531239846727635,0.004138131320051138,0.05324523247463527
-0.004530609846727636,0.004812299833936823,0.05324523247463496
-0.004529979846727635,0.005486468347823888,0.05357885290340506
-0.004529349846727635,0.005823552604766883,0.05424609376094434
-0.004528719846727635,0.006497721118653488,0.05424609376094465
-0.004528089846727635,0.006834805375596331,0.05457971418971398
-0.004527459846727635,0.006834805375596331,0.05424609376094434
-0.004526829846727635,0.007508973889482322,0.05391247333217469
-0.004526199846727636,0.007508973889482629,0.05424609376094404
-0.004525569846727635,0.007508973889482629,0.05424609376094434
-0.004524939846727635,0.007508973889482629,0.05424609376094434
-0.004524309846727635,0.007508973889482629,0.05424609376094434
-0.004523679846727635,0.007508973889482629,0.05424609376094434
-0.004523049846727635,0.007508973889482629,0.05457971418971398
-0.004522419846727636,0.007508973889482629,0.05424609376094465
-0.004521789846727635,0.00717188963253948,0.05457971418971413
-0.004521159846727635,0.00717188963253948,0.05457971418971413
-0.004520529846727635,0.00717188963253948,0.0542460937609445
-0.004519899846727635,0.00717188963253948,0.05457971418971413
-0.004519269846727635,0.007508973889482629,0.05457971418971413
-0.004518639846727636,0.007508973889482629,0.0542460937609445
-0.004518009846727635,0.00784605814642547,0.05424609376094419
-0.004517379846727635,0.00717188963253948,0.05391247333217454
-0.004516749846727635,0.00784605814642547,0.05391247333217454
-0.004516119846727635,0.007508973889482629,0.05391247333217469
-0.004515489846727635,0.007508973889482629,0.05424609376094434
-0.004514859846727635,0.007508973889482629,0.05391247333217469
-0.004514229846727636,0.007171889632539786,0.05424609376094404
-0.004513599846727635,0.006497721118653182,0.05457971418971413
-0.004512969846727635,0.006160636861710952,0.05457971418971413
-0.004512339846727635,0.007171889632540093,0.05457971418971429
-0.004511709846727635,0.008520226660312076,0.05491333461848394
-0.004511079846727635,0.009194395174198067,0.05491333461848394
-0.004510449846727636,0.01054273220196974,0.05558057547602292
-0.004509819846727635,0.01121690071585727,0.05524695504725373
-0.004509189846727635,0.009531479431142289,0.05491333461848409
-0.004508559846727635,0.007508973889481096,0.05491333461848394
-0.004507929846727635,0.00582355260476627,0.05491333461848348
-0.004507299846727635,0.004475215576994288,0.05391247333217454
-0.004506669846727636,0.004475215576994288,0.05391247333217454
-0.004506039846727636,0.00481229983393713,0.05391247333217454
-0.004505409846727635,0.005486468347823735,0.05391247333217454
-0.004504779846727635,0.006160636861710952,0.05391247333217485
-0.004504149846727635,0.00717188963253994,0.0542460937609445
-0.004503519846727635,0.008183142403368926,0.05457971418971413
-0.004502889846727635,0.008183142403368926,0.05457971418971413
-0.004502259846727636,0.007846058146426084,0.05457971418971413
-0.004501629846727635,0.008520226660312076,0.05457971418971413
-0.004500999846727635,0.008520226660312076,0.05491333461848379
-0.004500369846727635,0.008520226660311617,0.05457971418971429
-0.004499739846727635,0.007508973889482629,0.05491333461848394
-0.004499109846727635,0.007508973889482629,0.05424609376094465
-0.004498479846727636,0.006497721118654102,0.05391247333217485
-0.004497849846727635,0.006497721118653488,0.05457971418971413
-0.004497219846727635,0.00717188963253948,0.05457971418971413
-0.004496589846727635,0.006834805375596025,0.05457971418971413
-0.004495959846727635,0.006497721118653488,0.05457971418971413
-0.004495329846727635,0.00717188963253948,0.05457971418971413
-0.004494699846727635,0.007508973889482475,0.05457971418971413
-0.004494069846727636,0.007171889632539786,0.05424609376094465
-0.004493439846727635,0.006834805375596331,0.05424609376094434
-0.004492809846727635,0.006834805375596637,0.05424609376094465
-0.004492179846727635,0.007171889632539633,0.05457971418971413
-0.004491549846727635,0.007508973889482629,0.05457971418971413
-0.004490919846727635,0.006834805375596638,0.05457971418971413
-0.004490289846727636,0.006834805375596331,0.05391247333217514
-0.004489659846727635,0.006834805375596331,0.05424609376094434
-0.004489029846727635,0.006497721118653335,0.05424609376094434
-0.004488399846727635,0.006834805375596485,0.05424609376094434
-0.004487769846727635,0.007171889632540247,0.05424609376094434
-0.004487139846727635,0.008857310917255225,0.05424609376094434
