C=1nF, R=240kΩ, Circuits du premier ordre.csv

#Digilent WaveForms Oscilloscope Acquisition
#Device Name: Discovery2
#Serial Number: SN:210321AD5905
#Date Time: 2022-07-04 14:00:34.942
#Sample rate: 1.5873e+06Hz
#Samples: 8192
#Trigger: Source: Channel 1 Type: Edge Condition: Rising Level: 0 V Hyst.: Auto HoldOff: 100 ns
#Channel 1: Range: 500 mV/div Offset: 0 V Attenuation: 1 X Sample Mode: Average
#Channel 2: Range: 500 mV/div Offset: 0 V Attenuation: 1 X Sample Mode: Average
#Wavegen Channel 1: Running
#Mode: Custom
#Type: 3.0.csv
#Frequency: 250 Hz
#Period: 4 ms
#Amplitude: 2 V
#Offset: 0 V
#Phase: 0 бу

Time (s),Channel 1 (V),Channel 2 (V)
-0.004680371866105504,0.002789794292278542,0.00987457673456117
-0.004679741866105504,0.002789794292278542,0.01020819716333097
-0.004679111866105504,0.002789794292278542,0.01020819716333127
-0.004678481866105503,0.003126878549221692,0.009874576734561474
-0.004677851866105504,0.003126878549221692,0.009874576734561323
-0.004677221866105504,0.003126878549221692,0.009540956305791678
-0.004676591866105504,0.003126878549221692,0.009874576734561323
-0.004675961866105504,0.002789794292278849,0.01020819716333097
-0.004675331866105504,0.003126878549221692,0.009874576734561474
-0.004674701866105504,0.002789794292278696,0.009874576734561474
-0.004674071866105503,0.002452710035335393,0.00987457673456117
-0.004673441866105504,0.002452710035335546,0.009540956305791982
-0.004672811866105504,0.002789794292278542,0.01020819716333127
-0.004672181866105504,0.002789794292278542,0.01054181759210092
-0.004671551866105504,0.002789794292278542,0.00987457673456117
-0.004670921866105504,0.002789794292278542,0.009207335877021881
-0.004670291866105503,0.003126878549221692,0.009874576734562081
-0.004669661866105504,0.003126878549221845,0.01054181759210107
-0.004669031866105504,0.003463962806164841,0.01054181759210107
-0.004668401866105504,0.003463962806164841,0.01054181759210107
-0.004667771866105504,0.003801047063107683,0.01020819716333157
-0.004667141866105504,0.004138131320051138,0.01054181759210107
-0.004666511866105503,0.00481229983393713,0.01087543802087056
-0.004665881866105503,0.004475215576993982,0.01054181759210122
-0.004665251866105504,0.003801047063107989,0.01087543802087086
-0.004664621866105504,0.003126878549221998,0.009874576734561928
-0.004663991866105504,0.002789794292278849,0.009540956305791982
-0.004663361866105504,0.00245271003533524,0.009207335877021881
-0.004662731866105504,0.002115625778392244,0.009207335877021881
-0.004662101866105503,0.002115625778391938,0.009540956305792285
-0.004661471866105504,0.001778541521449402,0.01020819716333127
-0.004660841866105504,0.002452710035335393,0.01020819716333127
-0.004660211866105504,0.002452710035335393,0.01020819716333127
-0.004659581866105504,0.002789794292278236,0.01020819716333127
-0.004658951866105504,0.002789794292278542,0.01020819716333127
-0.004658321866105503,0.0024527100353357,0.01020819716333157
-0.004657691866105504,0.002789794292278389,0.01054181759210092
-0.004657061866105504,0.002452710035335393,0.01020819716333127
-0.004656431866105504,0.002452710035335393,0.01020819716333127
-0.004655801866105504,0.001778541521449709,0.009874576734561777
-0.004655171866105504,0.002115625778392244,0.01020819716333127
-0.004654541866105504,0.002789794292278236,0.01020819716333127
-0.004653911866105503,0.002789794292278696,0.009874576734561474
-0.004653281866105504,0.003126878549221692,0.009874576734561474
-0.004652651866105504,0.002789794292278542,0.009540956305791678
-0.004652021866105504,0.002115625778392551,0.01020819716333097
-0.004651391866105504,0.0024527100353357,0.01054181759210092
-0.004650761866105504,0.003126878549221692,0.01020819716333127
-0.004650131866105503,0.002789794292278542,0.01054181759210107
-0.004649501866105504,0.002789794292278389,0.01054181759210122
-0.004648871866105504,0.002452710035335393,0.01087543802087086
-0.004648241866105504,0.002452710035335393,0.01020819716333157
-0.004647611866105504,0.002789794292278236,0.009874576734561777
-0.004646981866105504,0.002789794292278542,0.009540956305791678
-0.004646351866105503,0.003126878549221385,0.009874576734562081
-0.004645721866105504,0.002789794292278696,0.01054181759210107
-0.004645091866105504,0.003126878549221692,0.01054181759210107
-0.004644461866105504,0.003801047063107683,0.01087543802087071
-0.004643831866105504,0.003801047063107989,0.01120905844964035
-0.004643201866105504,0.003801047063107989,0.01054181759210107
-0.004642571866105504,0.002789794292279002,0.01054181759210107
-0.004641941866105503,0.002115625778391938,0.01020819716333097
-0.004641311866105504,0.001778541521449096,0.009874576734561474
-0.004640681866105504,0.001778541521449096,0.009874576734561474
-0.004640051866105504,0.002115625778392091,0.009207335877022185
-0.004639421866105504,0.002452710035335087,0.009540956305791375
-0.004638791866105504,0.002789794292278542,0.009874576734561474
-0.004638161866105503,0.002452710035335087,0.009540956305791982
-0.004637531866105504,0.002115625778392397,0.009874576734561323
-0.004636901866105504,0.002452710035335393,0.009540956305791678
-0.004636271866105504,0.002789794292278389,0.009874576734561323
-0.004635641866105504,0.003126878549221385,0.009874576734561474
-0.004635011866105504,0.003463962806164841,0.01020819716333127
-0.004634381866105503,0.003126878549221385,0.01087543802087056
-0.004633751866105503,0.002789794292278389,0.01054181759210092
-0.004633121866105504,0.002452710035335393,0.01020819716333127
-0.004632491866105504,0.002789794292278389,0.009874576734561625
-0.004631861866105504,0.0024527100353357,0.01020819716333097
-0.004631231866105504,0.00245271003533524,0.01020819716333127
-0.004630601866105504,0.002115625778392244,0.01020819716333127
-0.004629971866105503,0.0024527100353357,0.01054181759210076
-0.004629341866105504,0.002789794292278389,0.01020819716333127
-0.004628711866105504,0.002452710035335393,0.01020819716333127
-0.004628081866105504,0.002452710035335393,0.01020819716333127
-0.004627451866105504,0.002789794292278236,0.01054181759210076
-0.004626821866105504,0.003463962806164841,0.01020819716333127
-0.004626191866105503,0.003126878549221385,0.01054181759210107
-0.004625561866105504,0.002789794292278542,0.01054181759210092
-0.004624931866105504,0.002789794292278542,0.01020819716333127
-0.004624301866105504,0.002789794292278542,0.01020819716333127
-0.004623671866105504,0.002789794292278542,0.01020819716333127
-0.004623041866105504,0.003463962806164841,0.01020819716333127
-0.004622411866105504,0.003463962806164841,0.01020819716333127
-0.004621781866105503,0.003801047063107989,0.01054181759210092
-0.004621151866105504,0.003801047063107989,0.01020819716333127
-0.004620521866105504,0.003126878549221692,0.01020819716333127
-0.004619891866105504,0.002789794292278696,0.01020819716333127
-0.004619261866105504,0.002115625778392244,0.009874576734561474
-0.004618631866105504,0.002115625778392244,0.009874576734561474
-0.004618001866105503,0.002115625778391938,0.009540956305791375
-0.004617371866105504,0.001778541521449096,0.009207335877022185
-0.004616741866105504,0.001778541521449096,0.009874576734561474
-0.004616111866105504,0.002115625778392091,0.01054181759210076
-0.004615481866105504,0.002452710035335087,0.01020819716333157
-0.004614851866105504,0.002789794292278542,0.01020819716333127
-0.004614221866105503,0.002789794292278542,0.01020819716333127
-0.004613591866105504,0.002789794292278696,0.01020819716333127
-0.004612961866105504,0.003126878549221692,0.01020819716333127
-0.004612331866105504,0.003126878549221692,0.01020819716333127
-0.004611701866105504,0.002789794292278849,0.01020819716333127
-0.004611071866105504,0.002452710035335393,0.01054181759210107
-0.004610441866105504,0.002452710035335393,0.01087543802087071
-0.004609811866105503,0.003463962806164228,0.01020819716333127
-0.004609181866105504,0.002789794292278696,0.01020819716333127
-0.004608551866105504,0.003126878549221692,0.01020819716333127
-0.004607921866105504,0.003463962806164687,0.01054181759210092
-0.004607291866105504,0.002789794292279156,0.01054181759210107
-0.004606661866105504,0.002452710035335393,0.01020819716333127
-0.004606031866105503,0.002789794292278542,0.01020819716333127
-0.004605401866105504,0.002789794292278542,0.01020819716333142
-0.004604771866105504,0.002789794292278542,0.01054181759210107
-0.004604141866105504,0.002789794292278542,0.01054181759210107
-0.004603511866105504,0.0024527100353357,0.01054181759210107
-0.004602881866105504,0.002789794292278542,0.01054181759210107
-0.004602251866105503,0.002789794292278236,0.01020819716333157
-0.004601621866105503,0.002452710035335393,0.01054181759210092
-0.004600991866105504,0.002452710035335393,0.01020819716333127
-0.004600361866105504,0.002789794292278389,0.01054181759210092
-0.004599731866105504,0.003126878549221385,0.01020819716333157
-0.004599101866105504,0.002789794292278696,0.01020819716333127
-0.004598471866105504,0.003126878549221692,0.01020819716333127
-0.004597841866105503,0.003463962806165147,0.01020819716333127
-0.004597211866105504,0.003801047063108143,0.01020819716333157
-0.004596581866105504,0.004138131320051138,0.01087543802087086
-0.004595951866105504,0.003463962806165147,0.01054181759210122
-0.004595321866105504,0.002789794292279156,0.01020819716333157
-0.004594691866105504,0.002115625778392244,0.009874576734561474
-0.004594061866105503,0.001441457264505333,0.009874576734561474
-0.004593431866105504,0.0007672887506201083,0.009874576734561474
-0.004592801866105504,0.001778541521449096,0.009874576734561474
-0.004592171866105504,0.002115625778392091,0.01020819716333112
-0.004591541866105504,0.002789794292277929,0.009540956305792285
-0.004590911866105504,0.002789794292278542,0.009874576734561474
-0.004590281866105504,0.003126878549221539,0.01020819716333112
-0.004589651866105503,0.003801047063107989,0.01054181759210107
-0.004589021866105504,0.003801047063107989,0.01054181759210107
-0.004588391866105504,0.003463962806164841,0.01087543802087086
-0.004587761866105504,0.003126878549221845,0.01054181759210122
-0.004587131866105504,0.003126878549221845,0.01120905844964035
-0.004586501866105504,0.003463962806164841,0.01054181759210107
-0.004585871866105503,0.003126878549221692,0.01087543802087056
-0.004585241866105504,0.003126878549221692,0.01054181759210107
-0.004584611866105504,0.003126878549221692,0.01054181759210107
-0.004583981866105504,0.003126878549221692,0.01020819716333142
-0.004583351866105504,0.002452710035336007,0.01054181759210076
-0.004582721866105504,0.001778541521449096,0.01087543802087086
-0.004582091866105503,0.0024527100353357,0.01054181759210076
-0.004581461866105504,0.002789794292278236,0.01020819716333127
-0.004580831866105504,0.002115625778392244,0.01020819716333127
-0.004580201866105504,0.00245271003533524,0.01087543802087056
-0.004579571866105504,0.002789794292278236,0.01087543802087086
-0.004578941866105504,0.002789794292278542,0.01054181759210107
-0.004578311866105504,0.002452710035335546,0.01054181759210107
-0.004577681866105503,0.003126878549221692,0.01087543802087056
-0.004577051866105504,0.003126878549221692,0.01054181759210122
-0.004576421866105504,0.003126878549221692,0.01087543802087086
-0.004575791866105504,0.0024527100353357,0.01054181759210122
-0.004575161866105504,0.002452710035335393,0.01020819716333157
-0.004574531866105504,0.002789794292278542,0.01020819716333127
-0.004573901866105503,0.002115625778392857,0.01054181759210137
-0.004573271866105504,0.002789794292278849,0.01087543802087086
-0.004572641866105504,0.003463962806164841,0.01087543802087086
-0.004572011866105504,0.003463962806164841,0.01087543802087086
-0.004571381866105504,0.003463962806164841,0.01054181759210137
-0.004570751866105504,0.002789794292278542,0.01054181759210107
-0.004570121866105504,0.001778541521449555,0.01054181759210107
-0.004569491866105503,0.001104373007562797,0.009874576734561625
-0.004568861866105504,0.001104373007562797,0.01020819716333127
-0.004568231866105504,0.001441457264505793,0.009540956305791982
-0.004567601866105504,0.002115625778391631,0.00987457673456117
-0.004566971866105504,0.0024527100353357,0.009874576734561777
-0.004566341866105504,0.003126878549221692,0.01054181759210107
-0.004565711866105503,0.003126878549221078,0.01087543802087056
-0.004565081866105504,0.002452710035335393,0.01054181759210092
-0.004564451866105504,0.002452710035335393,0.01020819716333127
-0.004563821866105504,0.003126878549221385,0.01054181759210092
-0.004563191866105504,0.003126878549221692,0.01054181759210107
-0.004562561866105504,0.002452710035335393,0.01020819716333127
-0.004561931866105503,0.0024527100353357,0.01054181759210167
-0.004561301866105504,0.002789794292278389,0.01120905844964035
-0.004560671866105504,0.002452710035335393,0.01054181759210107
-0.004560041866105504,0.003126878549221385,0.01054181759210107
-0.004559411866105504,0.003126878549221692,0.01020819716333157
-0.004558781866105504,0.003126878549221692,0.01020819716333127
-0.004558151866105504,0.002789794292278696,0.01020819716333127
-0.004557521866105503,0.0024527100353357,0.01087543802087117
-0.004556891866105504,0.003126878549221692,0.01154267887841045
-0.004556261866105504,0.002789794292278542,0.01120905844964066
-0.004555631866105504,0.002789794292278542,0.01087543802087101
-0.004555001866105504,0.002115625778392244,0.01054181759210076
-0.004554371866105504,0.002115625778392244,0.009874576734561474
-0.004553741866105503,0.0024527100353357,0.01054181759210137
-0.004553111866105504,0.002789794292278389,0.01087543802087071
-0.004552481866105504,0.002452710035335393,0.01054181759210107
-0.004551851866105504,0.002452710035335393,0.01087543802087071
-0.004551221866105504,0.002789794292278236,0.01087543802087086
-0.004550591866105504,0.002789794292278542,0.01120905844964066
-0.004549961866105503,0.003126878549221998,0.01087543802087117
-0.004549331866105503,0.003463962806164841,0.01120905844964081
-0.004548701866105504,0.003463962806164841,0.01154267887841045
-0.004548071866105504,0.003463962806164841,0.0118762993071801
-0.004547441866105504,0.002789794292279156,0.01187629930718025
-0.004546811866105504,0.002115625778392244,0.01087543802087086
-0.004546181866105504,0.001778541521449249,0.009874576734561928
-0.004545551866105503,0.001778541521448482,0.01020819716333097
-0.004544921866105504,0.001104373007562797,0.009874576734561323
-0.004544291866105504,0.001104373007562797,0.009540956305791678
-0.004543661866105504,0.001441457264505793,0.009540956305791678
-0.004543031866105504,0.001441457264505946,0.01054181759210016
-0.004542401866105504,0.001104373007562797,0.01020819716333127
-0.004541771866105503,0.001778541521449709,0.01020819716333157
-0.004541141866105504,0.002452710035335393,0.01054181759210122
-0.004540511866105504,0.002452710035335393,0.01087543802087086
-0.004539881866105504,0.002789794292278389,0.01054181759210122
-0.004539251866105504,0.002789794292278542,0.01087543802087056
-0.004538621866105504,0.002789794292278542,0.01120905844964066
-0.004537991866105504,0.002115625778392551,0.01087543802087101
-0.004537361866105503,0.002115625778392244,0.01054181759210107
-0.004536731866105504,0.002115625778392244,0.01054181759210107
-0.004536101866105504,0.002115625778392244,0.01054181759210107
-0.004535471866105504,0.002115625778392244,0.01054181759210107
-0.004534841866105504,0.002452710035335393,0.01020819716333157
-0.004534211866105504,0.002452710035335393,0.01087543802087086
-0.004533581866105503,0.002789794292278236,0.01054181759210107
-0.004532951866105504,0.002452710035335546,0.01054181759210107
-0.004532321866105504,0.002789794292278542,0.01054181759210107
-0.004531691866105504,0.002452710035335546,0.01087543802087071
-0.004531061866105504,0.002452710035335393,0.01120905844964035
-0.004530431866105504,0.002789794292278542,0.01120905844964066
-0.004529801866105503,0.003463962806164534,0.01120905844964005
-0.004529171866105504,0.003126878549221232,0.01054181759210107
-0.004528541866105504,0.002115625778392244,0.01054181759210107
-0.004527911866105504,0.00245271003533524,0.01087543802087071
-0.004527281866105504,0.002452710035335393,0.01087543802087086
-0.004526651866105504,0.002452710035335393,0.01087543802087086
-0.004526021866105504,0.002452710035335393,0.01120905844964051
-0.004525391866105503,0.002452710035335546,0.01087543802087117
-0.004524761866105504,0.002789794292278696,0.01154267887841061
-0.004524131866105504,0.003126878549221692,0.01187629930718025
-0.004523501866105504,0.003463962806164687,0.01154267887841061
-0.004522871866105504,0.003801047063107683,0.01087543802087101
-0.004522241866105504,0.003126878549221692,0.01120905844964066
-0.004521611866105503,0.002115625778391324,0.01087543802086995
-0.004520981866105504,0.001104373007562644,0.009874576734561625
-0.004520351866105504,0.0007672887506196483,0.01020819716333127
-0.004519721866105504,0.00144145726450564,0.01054181759210092
-0.004519091866105504,0.001778541521448789,0.01054181759210107
-0.004518461866105504,0.001778541521449096,0.01054181759210107
-0.004517831866105503,0.0024527100353357,0.01020819716333188
-0.004517201866105503,0.002789794292278236,0.01087543802087101
-0.004516571866105504,0.002115625778392244,0.01120905844964066
-0.004515941866105504,0.002789794292278236,0.01087543802087101
-0.004515311866105504,0.003126878549221385,0.01120905844964035
-0.004514681866105504,0.003126878549221692,0.01120905844964066
-0.004514051866105504,0.003126878549221692,0.01120905844964066
-0.004513421866105503,0.003126878549221692,0.01087543802087117
-0.004512791866105504,0.003126878549221539,0.01120905844964066
-0.004512161866105504,0.002789794292278542,0.01120905844964066
-0.004511531866105504,0.002789794292278542,0.01120905844964066
-0.004510901866105504,0.002789794292278542,0.01054181759210167
-0.004510271866105504,0.003126878549221692,0.01020819716333127
-0.004509641866105503,0.002789794292278542,0.01054181759210107
-0.004509011866105504,0.002789794292278389,0.01054181759210107
-0.004508381866105504,0.002452710035335393,0.01054181759210107
-0.004507751866105504,0.002115625778392398,0.01054181759210107
-0.004507121866105504,0.002115625778392244,0.01054181759210107
-0.004506491866105504,0.002452710035335393,0.01020819716333127
-0.004505861866105504,0.002115625778392398,0.01020819716333127
-0.004505231866105503,0.002789794292278389,0.01054181759210137
-0.004504601866105504,0.002452710035335393,0.01120905844964066
-0.004503971866105504,0.002452710035335393,0.01087543802087101
-0.004503341866105504,0.002789794292278389,0.01087543802087086
-0.004502711866105504,0.002452710035335393,0.01120905844964051
-0.004502081866105504,0.002452710035335393,0.01087543802087086
-0.004501451866105503,0.002115625778392551,0.01054181759210137
-0.004500821866105504,0.002452710035335853,0.01087543802087117
-0.004500191866105504,0.003463962806164841,0.01154267887841045
-0.004499561866105504,0.004138131320050831,0.01087543802087117
-0.004498931866105504,0.003801047063108296,0.01087543802087086
-0.004498301866105504,0.003126878549221692,0.01154267887841045
-0.004497671866105503,0.002452710035335087,0.01120905844964035
-0.004497041866105504,0.002115625778392091,0.01087543802087071
-0.004496411866105504,0.001778541521449096,0.01054181759210107
-0.004495781866105504,0.0014414572645061,0.01020819716333142
-0.004495151866105504,0.001104373007563104,0.01020819716333127
-0.004494521866105504,0.001441457264505946,0.01054181759210107
-0.004493891866105504,0.001441457264505946,0.01054181759210107
-0.004493261866105503,0.002115625778392397,0.01054181759210122
-0.004492631866105504,0.002452710035335393,0.01087543802087056
-0.004492001866105504,0.002452710035335393,0.01020819716333127
-0.004491371866105504,0.002789794292278389,0.009874576734561625
-0.004490741866105504,0.002452710035335393,0.01054181759210107
-0.004490111866105504,0.002452710035335393,0.01054181759210107
-0.004489481866105503,0.002789794292278542,0.01087543802087086
-0.004488851866105504,0.002789794292278542,0.01087543802087101
-0.004488221866105504,0.002789794292278542,0.01120905844964066
-0.004487591866105504,0.002452710035335546,0.01087543802087101
